(export (version D)
  (design
    (source /home/morgan/devel/LoRaNeT32/LoRaNeT32.sch)
    (date "Mon 01 May 2017 11:57:42 AM PDT")
    (tool "Eeschema 4.0.6-e0-6349~53~ubuntu16.04.1")
    (sheet (number 1) (name /) (tstamps /)
      (title_block
        (title)
        (company)
        (rev)
        (date)
        (source LoRaNeT32.sch)
        (comment (number 1) (value ""))
        (comment (number 2) (value ""))
        (comment (number 3) (value ""))
        (comment (number 4) (value ""))))
    (sheet (number 2) (name /Lora/) (tstamps /58E2D927/)
      (title_block
        (title)
        (company)
        (rev)
        (date)
        (source LoRaNeT32_Lora.sch)
        (comment (number 1) (value ""))
        (comment (number 2) (value ""))
        (comment (number 3) (value ""))
        (comment (number 4) (value ""))))
    (sheet (number 3) (name /CP2102/) (tstamps /58E299D2/)
      (title_block
        (title)
        (company)
        (rev)
        (date)
        (source LoRaNeT32_CP2102.sch)
        (comment (number 1) (value ""))
        (comment (number 2) (value ""))
        (comment (number 3) (value ""))
        (comment (number 4) (value ""))))
    (sheet (number 4) (name /ESP32/) (tstamps /58E2FC97/)
      (title_block
        (title)
        (company)
        (rev)
        (date)
        (source LoRaNeT32_ESP32.sch)
        (comment (number 1) (value ""))
        (comment (number 2) (value ""))
        (comment (number 3) (value ""))
        (comment (number 4) (value "")))))
  (components
    (comp (ref R3)
      (value 698k)
      (footprint Resistors_SMD:R_0402)
      (libsource (lib device) (part R))
      (sheetpath (names /) (tstamps /))
      (tstamp 58E1D197))
    (comp (ref L2)
      (value 47u)
      (footprint Choke_SMD:Choke_SMD_6.3x6.3_H3)
      (libsource (lib device) (part L))
      (sheetpath (names /) (tstamps /))
      (tstamp 58E35265))
    (comp (ref J3)
      (value BATT)
      (footprint Connectors_JST:JST_PH_S2B-PH-K_02x2.00mm_Angled)
      (libsource (lib conn) (part CONN_01X02))
      (sheetpath (names /) (tstamps /))
      (tstamp 58E389B1))
    (comp (ref J4)
      (value SOLAR)
      (footprint Connectors_JST:JST_PH_S2B-PH-K_02x2.00mm_Angled)
      (libsource (lib conn) (part CONN_01X02))
      (sheetpath (names /) (tstamps /))
      (tstamp 58E5A098))
    (comp (ref D3)
      (value LED)
      (footprint LEDs:LED_0402)
      (libsource (lib device) (part LED))
      (sheetpath (names /) (tstamps /))
      (tstamp 58F326F2))
    (comp (ref D4)
      (value LED)
      (footprint LEDs:LED_0402)
      (libsource (lib device) (part LED))
      (sheetpath (names /) (tstamps /))
      (tstamp 58F327CF))
    (comp (ref R18)
      (value 10k)
      (footprint Resistors_SMD:R_0402)
      (libsource (lib device) (part R))
      (sheetpath (names /) (tstamps /))
      (tstamp 58F32950))
    (comp (ref R17)
      (value 10k)
      (footprint Resistors_SMD:R_0402)
      (libsource (lib device) (part R))
      (sheetpath (names /) (tstamps /))
      (tstamp 58F32B0B))
    (comp (ref U1)
      (value LTC4121-4.2)
      (footprint Housings_DFN_QFN:QFN-16-1EP_3x3mm_Pitch0.5mm)
      (libsource (lib ltc4121-4v2) (part LTC4121-4.2))
      (sheetpath (names /) (tstamps /))
      (tstamp 58FD9FCA))
    (comp (ref C6)
      (value 22n)
      (footprint Capacitors_SMD:C_0603)
      (libsource (lib device) (part C_Small))
      (sheetpath (names /) (tstamps /))
      (tstamp 58FDA6D1))
    (comp (ref C7)
      (value 22n)
      (footprint Capacitors_SMD:C_0603)
      (libsource (lib device) (part C_Small))
      (sheetpath (names /) (tstamps /))
      (tstamp 58FDACB6))
    (comp (ref C8)
      (value 2.2u)
      (footprint Capacitors_SMD:C_0603)
      (libsource (lib device) (part C_Small))
      (sheetpath (names /) (tstamps /))
      (tstamp 58FDB2A1))
    (comp (ref R6)
      (value 3.01k)
      (footprint Resistors_SMD:R_0402)
      (libsource (lib device) (part R_Small))
      (sheetpath (names /) (tstamps /))
      (tstamp 58FDC614))
    (comp (ref R1)
      (value 100k)
      (footprint Resistors_SMD:R_0402)
      (libsource (lib device) (part R))
      (sheetpath (names /) (tstamps /))
      (tstamp 58FDDEA0))
    (comp (ref R5)
      (value 107k)
      (footprint Resistors_SMD:R_0402)
      (libsource (lib device) (part R_Small))
      (sheetpath (names /) (tstamps /))
      (tstamp 58FDFE03))
    (comp (ref R2)
      (value 464k)
      (footprint Resistors_SMD:R_0402)
      (libsource (lib device) (part R))
      (sheetpath (names /) (tstamps /))
      (tstamp 58FE000C))
    (comp (ref C1)
      (value 10u)
      (footprint Capacitors_SMD:C_0603)
      (libsource (lib device) (part C_Small))
      (sheetpath (names /) (tstamps /))
      (tstamp 58FE14D0))
    (comp (ref J2)
      (value CONN_01X03)
      (footprint Buttons_Switches_SMD:SW_SPDT_PCM12)
      (libsource (lib conn) (part CONN_01X03))
      (sheetpath (names /) (tstamps /))
      (tstamp 58FEC747))
    (comp (ref L1)
      (value 1u)
      (footprint Choke_SMD:Choke_SMD_6.3x6.3_H3)
      (libsource (lib device) (part L))
      (sheetpath (names /) (tstamps /))
      (tstamp 58FEE083))
    (comp (ref C9)
      (value 10u)
      (footprint Capacitors_SMD:C_0603)
      (libsource (lib device) (part C_Small))
      (sheetpath (names /) (tstamps /))
      (tstamp 58FEEA84))
    (comp (ref C10)
      (value 22n)
      (footprint Capacitors_SMD:C_0603)
      (libsource (lib device) (part C_Small))
      (sheetpath (names /) (tstamps /))
      (tstamp 58FEFB1A))
    (comp (ref C11)
      (value 22n)
      (footprint Capacitors_SMD:C_0603)
      (libsource (lib device) (part C_Small))
      (sheetpath (names /) (tstamps /))
      (tstamp 58FF0148))
    (comp (ref U3)
      (value ISL91127)
      (footprint Housings_DFN_QFN:QFN-20-1EP_4x4mm_Pitch0.5mm)
      (libsource (lib ESP32-footprints-Shem-Lib) (part ISL91127))
      (sheetpath (names /) (tstamps /))
      (tstamp 58FFAF45))
    (comp (ref D1)
      (value D_Schottky)
      (libsource (lib device) (part D_Schottky))
      (sheetpath (names /) (tstamps /))
      (tstamp 59031366))
    (comp (ref U2)
      (value RN2903)
      (footprint lib:RN2903)
      (fields
        (field (name digi#) RN2903A-I/RM098-ND))
      (libsource (lib LoRaNeT32-rescue) (part RN2483-RESCUE-LoRaNeT32))
      (sheetpath (names /Lora/) (tstamps /58E2D927/))
      (tstamp 58E2D9A0))
    (comp (ref ANT2)
      (value CON-SMA)
      (footprint lib:CON-SMA-EDGE)
      (fields
        (field (name digi#) CON-SMA-EDGE-S-ND))
      (libsource (lib CON-SMA-EDGE) (part CON-SMA))
      (sheetpath (names /Lora/) (tstamps /58E2D927/))
      (tstamp 58E2DE30))
    (comp (ref ANT1)
      (value CON-SMA)
      (footprint lib:CON-SMA-EDGE)
      (fields
        (field (name digi#) CON-SMA-EDGE-S-ND))
      (libsource (lib CON-SMA-EDGE) (part CON-SMA))
      (sheetpath (names /Lora/) (tstamps /58E2D927/))
      (tstamp 58E2DEA1))
    (comp (ref R9)
      (value 4.7k)
      (footprint Resistors_SMD:R_0402)
      (libsource (lib device) (part R))
      (sheetpath (names /Lora/) (tstamps /58E2D927/))
      (tstamp 58FFB279))
    (comp (ref C4)
      (value 4.7u)
      (footprint Capacitors_SMD:C_0603)
      (libsource (lib device) (part C_Small))
      (sheetpath (names /CP2102/) (tstamps /58E299D2/))
      (tstamp 58F84C87))
    (comp (ref C5)
      (value 0.1u)
      (footprint Capacitors_SMD:C_0603)
      (libsource (lib device) (part C_Small))
      (sheetpath (names /CP2102/) (tstamps /58E299D2/))
      (tstamp 58F84CBE))
    (comp (ref C2)
      (value 4.7u)
      (footprint Capacitors_SMD:C_0603)
      (libsource (lib device) (part C_Small))
      (sheetpath (names /CP2102/) (tstamps /58E299D2/))
      (tstamp 58F8502D))
    (comp (ref C3)
      (value 0.1u)
      (footprint Capacitors_SMD:C_0603)
      (libsource (lib device) (part C_Small))
      (sheetpath (names /CP2102/) (tstamps /58E299D2/))
      (tstamp 58F85034))
    (comp (ref R4)
      (value 1k)
      (footprint Resistors_SMD:R_0402)
      (libsource (lib device) (part R_Small))
      (sheetpath (names /CP2102/) (tstamps /58E299D2/))
      (tstamp 58F85367))
    (comp (ref D5)
      (value LED_Small)
      (footprint LEDs:LED_0603)
      (libsource (lib device) (part LED_Small))
      (sheetpath (names /CP2102/) (tstamps /58E299D2/))
      (tstamp 58FD1E2F))
    (comp (ref D6)
      (value LED_Small)
      (footprint LEDs:LED_0603)
      (libsource (lib device) (part LED_Small))
      (sheetpath (names /CP2102/) (tstamps /58E299D2/))
      (tstamp 58FD1F6B))
    (comp (ref U4)
      (value CP2102N-A01-GQFN28R)
      (footprint Housings_DFN_QFN:QFN-28-1EP_5x6mm_Pitch0.5mm)
      (libsource (lib CP2102) (part CP2102N-A01-GQFN28R))
      (sheetpath (names /CP2102/) (tstamps /58E299D2/))
      (tstamp 58FD34DE))
    (comp (ref R7)
      (value 10k)
      (footprint Resistors_SMD:R_0402)
      (libsource (lib device) (part R))
      (sheetpath (names /CP2102/) (tstamps /58E299D2/))
      (tstamp 58FE63BD))
    (comp (ref R8)
      (value 10k)
      (footprint Resistors_SMD:R_0402)
      (libsource (lib device) (part R))
      (sheetpath (names /CP2102/) (tstamps /58E299D2/))
      (tstamp 58FE649C))
    (comp (ref J1)
      (value USB_OTG2)
      (footprint Connect:USB_Micro-B)
      (libsource (lib ESP32-footprints-Shem-Lib) (part USB_OTG2))
      (sheetpath (names /CP2102/) (tstamps /58E299D2/))
      (tstamp 58FFA4D7))
    (comp (ref U5)
      (value ESP32)
      (footprint ESP32-footprints-Lib:ESP32)
      (libsource (lib ESP32-footprints-Shem-Lib) (part ESP32))
      (sheetpath (names /ESP32/) (tstamps /58E2FC97/))
      (tstamp 58E734B0))
    (comp (ref Y2)
      (value 40MHz)
      (footprint Crystals:Crystal_SMD_3225-4pin_3.2x2.5mm)
      (fields
        (field (name digi#) 631-1433-1-ND))
      (libsource (lib device) (part Crystal_GND23))
      (sheetpath (names /ESP32/) (tstamps /58E2FC97/))
      (tstamp 58E7377E))
    (comp (ref Y3)
      (value 32K)
      (footprint Crystals:Crystal_SMD_3215-2pin_3.2x1.5mm)
      (libsource (lib device) (part Crystal))
      (sheetpath (names /ESP32/) (tstamps /58E2FC97/))
      (tstamp 58E737CB))
    (comp (ref C15)
      (value 22pF)
      (footprint Capacitors_SMD:C_0402)
      (libsource (lib device) (part C_Small))
      (sheetpath (names /ESP32/) (tstamps /58E2FC97/))
      (tstamp 58E7D451))
    (comp (ref C18)
      (value 22pF)
      (footprint Capacitors_SMD:C_0402)
      (libsource (lib device) (part C_Small))
      (sheetpath (names /ESP32/) (tstamps /58E2FC97/))
      (tstamp 58E7D539))
    (comp (ref C19)
      (value 1uF)
      (footprint Capacitors_SMD:C_0402)
      (libsource (lib device) (part C_Small))
      (sheetpath (names /ESP32/) (tstamps /58E2FC97/))
      (tstamp 58E7D7CD))
    (comp (ref C16)
      (value 100pF)
      (footprint Capacitors_SMD:C_0402)
      (libsource (lib device) (part C_Small))
      (sheetpath (names /ESP32/) (tstamps /58E2FC97/))
      (tstamp 58E7D800))
    (comp (ref C24)
      (value 0.1uF)
      (footprint Capacitors_SMD:C_0402)
      (libsource (lib device) (part C_Small))
      (sheetpath (names /ESP32/) (tstamps /58E2FC97/))
      (tstamp 58E7DAFE))
    (comp (ref C23)
      (value 0.1uF)
      (footprint Capacitors_SMD:C_0402)
      (libsource (lib device) (part C_Small))
      (sheetpath (names /ESP32/) (tstamps /58E2FC97/))
      (tstamp 58E7DDEE))
    (comp (ref C27)
      (value 1uF)
      (footprint Capacitors_SMD:C_0402)
      (libsource (lib device) (part C_Small))
      (sheetpath (names /ESP32/) (tstamps /58E2FC97/))
      (tstamp 58E7DE2C))
    (comp (ref C25)
      (value 10uF)
      (footprint Capacitors_SMD:C_0402)
      (libsource (lib device) (part C_Small))
      (sheetpath (names /ESP32/) (tstamps /58E2FC97/))
      (tstamp 58E7DE81))
    (comp (ref C26)
      (value 10uF)
      (footprint Capacitors_SMD:C_0402)
      (libsource (lib device) (part C_Small))
      (sheetpath (names /ESP32/) (tstamps /58E2FC97/))
      (tstamp 58E7DF70))
    (comp (ref C17)
      (value 10nF)
      (footprint Capacitors_SMD:C_0402)
      (libsource (lib device) (part C_Small))
      (sheetpath (names /ESP32/) (tstamps /58E2FC97/))
      (tstamp 58E7E4E9))
    (comp (ref C20)
      (value 3.3nF)
      (footprint Capacitors_SMD:C_0402)
      (libsource (lib device) (part C_Small))
      (sheetpath (names /ESP32/) (tstamps /58E2FC97/))
      (tstamp 58E7E674))
    (comp (ref R12)
      (value 20K)
      (footprint Resistors_SMD:R_0402)
      (libsource (lib device) (part R_Small))
      (sheetpath (names /ESP32/) (tstamps /58E2FC97/))
      (tstamp 58E7E6D0))
    (comp (ref C22)
      (value 0.1uF)
      (footprint Capacitors_SMD:C_0402)
      (libsource (lib device) (part C_Small))
      (sheetpath (names /ESP32/) (tstamps /58E2FC97/))
      (tstamp 58E7EDA7))
    (comp (ref ANT3)
      (value CON-SMA)
      (footprint lib:CON-SMA-EDGE)
      (fields
        (field (name digi#) CON-SMA-EDGE-S-ND))
      (libsource (lib CON-SMA-EDGE) (part CON-SMA))
      (sheetpath (names /ESP32/) (tstamps /58E2FC97/))
      (tstamp 58E7F1FD))
    (comp (ref C28)
      (value 0.1uF)
      (footprint Capacitors_SMD:C_0402)
      (libsource (lib device) (part C_Small))
      (sheetpath (names /ESP32/) (tstamps /58E2FC97/))
      (tstamp 58E89BBE))
    (comp (ref C21)
      (value 1uF)
      (footprint Capacitors_SMD:C_0402)
      (libsource (lib device) (part C_Small))
      (sheetpath (names /ESP32/) (tstamps /58E2FC97/))
      (tstamp 58E8A952))
    (comp (ref Q2)
      (value Q_NPN_BCE)
      (footprint TO_SOT_Packages_SMD:SOT-23)
      (fields
        (field (name Mfg_Part_No) MMSS8050-L-TPMSTR-ND))
      (libsource (lib device) (part Q_NPN_BCE))
      (sheetpath (names /ESP32/) (tstamps /58E2FC97/))
      (tstamp 5902C9FA))
    (comp (ref Q1)
      (value Q_NPN_BCE)
      (footprint TO_SOT_Packages_SMD:SOT-23)
      (fields
        (field (name Mfg_Part_No) MMSS8050-L-TPMSTR-ND))
      (libsource (lib device) (part Q_NPN_BCE))
      (sheetpath (names /ESP32/) (tstamps /58E2FC97/))
      (tstamp 5902CAC5))
    (comp (ref R10)
      (value 12k)
      (footprint Resistors_SMD:R_0402)
      (fields
        (field (name Mfg_Part_No) 311-12KJRTR-ND))
      (libsource (lib device) (part R_Small))
      (sheetpath (names /ESP32/) (tstamps /58E2FC97/))
      (tstamp 5902E16A))
    (comp (ref R11)
      (value 12k)
      (footprint Resistors_SMD:R_0402)
      (fields
        (field (name Mfg_Part_No) 311-12KJRTR-ND))
      (libsource (lib device) (part R_Small))
      (sheetpath (names /ESP32/) (tstamps /58E2FC97/))
      (tstamp 5902E1E5))
    (comp (ref C12)
      (value 1u)
      (footprint Capacitors_SMD:C_0402)
      (libsource (lib device) (part C_Small))
      (sheetpath (names /ESP32/) (tstamps /58E2FC97/))
      (tstamp 5902EBA1))
    (comp (ref U8)
      (value W25Q16JVSNIQ)
      (footprint Housings_SOIC:SOIJ-8_5.3x5.3mm_Pitch1.27mm)
      (datasheet https://www.winbond.com/resource-files/w25q16jv%20spi%20revd%2008122016.pdf)
      (fields
        (field (name MPN) W25Q16JVSNIQ)
        (field (name Manuf) Winbond)
        (field (name BOM) "Winbond W25Q16JVSNIQ")
        (field (name digi#) W25Q16JVSNIQ))
      (libsource (lib Winbond) (part W25Q16JVSNIQ))
      (sheetpath (names /ESP32/) (tstamps /58E2FC97/))
      (tstamp 58E94D47))
    (comp (ref J5)
      (value Micro_SD_Card_Det)
      (libsource (lib conn) (part Micro_SD_Card_Det))
      (sheetpath (names /ESP32/) (tstamps /58E2FC97/))
      (tstamp 5907608E)))
  (libparts
    (libpart (lib CON-SMA-EDGE) (part CON-SMA)
      (fields
        (field (name Reference) ANT)
        (field (name Value) CON-SMA))
      (pins
        (pin (num 1) (name SMA) (type passive))
        (pin (num 2) (name GND) (type passive))
        (pin (num 3) (name GND) (type passive))
        (pin (num 4) (name GND) (type passive))
        (pin (num 5) (name GND) (type passive))))
    (libpart (lib conn) (part CONN_01X02)
      (description "Connector, single row, 01x02, pin header")
      (footprints
        (fp Pin_Header_Straight_1X*)
        (fp Pin_Header_Angled_1X*)
        (fp Socket_Strip_Straight_1X*)
        (fp Socket_Strip_Angled_1X*))
      (fields
        (field (name Reference) J)
        (field (name Value) CONN_01X02))
      (pins
        (pin (num 1) (name P1) (type passive))
        (pin (num 2) (name P2) (type passive))))
    (libpart (lib conn) (part CONN_01X03)
      (description "Connector, single row, 01x03, pin header")
      (footprints
        (fp Pin_Header_Straight_1X*)
        (fp Pin_Header_Angled_1X*)
        (fp Socket_Strip_Straight_1X*)
        (fp Socket_Strip_Angled_1X*))
      (fields
        (field (name Reference) J)
        (field (name Value) CONN_01X03))
      (pins
        (pin (num 1) (name P1) (type passive))
        (pin (num 2) (name P2) (type passive))
        (pin (num 3) (name P3) (type passive))))
    (libpart (lib CP2102) (part CP2102N-A01-GQFN28R)
      (fields
        (field (name Reference) U)
        (field (name Value) CP2102N-A01-GQFN28R))
      (pins
        (pin (num 1) (name DCD) (type input))
        (pin (num 2) (name CLK) (type input))
        (pin (num 3) (name GND) (type input))
        (pin (num 4) (name D+) (type input))
        (pin (num 5) (name D-) (type input))
        (pin (num 6) (name Vdd) (type input))
        (pin (num 7) (name REGIN) (type input))
        (pin (num 8) (name VBUS) (type input))
        (pin (num 9) (name RSTb) (type input))
        (pin (num 10) (name NC) (type input))
        (pin (num 11) (name SUSPENDb) (type input))
        (pin (num 12) (name SUSPEND) (type input))
        (pin (num 13) (name CHREN) (type input))
        (pin (num 14) (name CHR1) (type input))
        (pin (num 15) (name CHR0) (type input))
        (pin (num 16) (name WAKEUP) (type input))
        (pin (num 17) (name RS485) (type input))
        (pin (num 18) (name RXT) (type input))
        (pin (num 19) (name TXT) (type input))
        (pin (num 20) (name GPIO6) (type input))
        (pin (num 21) (name GPIO5) (type input))
        (pin (num 22) (name GPIO4) (type input))
        (pin (num 23) (name CTS) (type input))
        (pin (num 24) (name RTS) (type input))
        (pin (num 25) (name RXD) (type input))
        (pin (num 26) (name TXD) (type input))
        (pin (num 27) (name DSR) (type input))
        (pin (num 28) (name DTR) (type input))
        (pin (num 29) (name GND) (type input))))
    (libpart (lib device) (part C_Small)
      (description "Unpolarized capacitor")
      (footprints
        (fp C_*))
      (fields
        (field (name Reference) C)
        (field (name Value) C_Small))
      (pins
        (pin (num 1) (name ~) (type passive))
        (pin (num 2) (name ~) (type passive))))
    (libpart (lib device) (part Crystal)
      (description "Two pin crystal")
      (footprints
        (fp Crystal*))
      (fields
        (field (name Reference) Y)
        (field (name Value) Crystal))
      (pins
        (pin (num 1) (name 1) (type passive))
        (pin (num 2) (name 2) (type passive))))
    (libpart (lib device) (part Crystal_GND23)
      (description "Four pin crystal (GND on pins 2 and 3), e.g. in SMD package")
      (footprints
        (fp Crystal*))
      (fields
        (field (name Reference) Y)
        (field (name Value) Crystal_GND23))
      (pins
        (pin (num 1) (name 1) (type passive))
        (pin (num 2) (name 2) (type passive))
        (pin (num 3) (name 3) (type passive))
        (pin (num 4) (name 4) (type passive))))
    (libpart (lib device) (part D_Schottky)
      (description "Schottky diode")
      (footprints
        (fp TO-???*)
        (fp *SingleDiode)
        (fp *_Diode_*)
        (fp *SingleDiode*)
        (fp D_*))
      (fields
        (field (name Reference) D)
        (field (name Value) D_Schottky))
      (pins
        (pin (num 1) (name K) (type passive))
        (pin (num 2) (name A) (type passive))))
    (libpart (lib ESP32-footprints-Shem-Lib) (part ESP32)
      (fields
        (field (name Reference) U)
        (field (name Value) ESP32)
        (field (name Footprint) ESP32-footprints-Lib:ESP32))
      (pins
        (pin (num 1) (name VDDA) (type power_in))
        (pin (num 2) (name LNA_IN) (type input))
        (pin (num 3) (name VDD3P3) (type power_in))
        (pin (num 4) (name VDD3P3) (type input))
        (pin (num 5) (name SENSOR_VP) (type input))
        (pin (num 6) (name SENSOR_CAPP) (type input))
        (pin (num 7) (name SENSOR_CAPN) (type input))
        (pin (num 8) (name SENSOR_VN) (type input))
        (pin (num 9) (name CHIP_PU) (type input))
        (pin (num 10) (name VDET_1) (type input))
        (pin (num 11) (name VDET_2) (type input))
        (pin (num 12) (name 32K_XP) (type BiDi))
        (pin (num 13) (name 32K_XIN) (type BiDi))
        (pin (num 14) (name GPIO25) (type BiDi))
        (pin (num 15) (name GPIO26) (type BiDi))
        (pin (num 16) (name GPIO27) (type BiDi))
        (pin (num 17) (name MTMS) (type BiDi))
        (pin (num 18) (name MTDI) (type BiDi))
        (pin (num 19) (name VDD3P3_RTC) (type power_in))
        (pin (num 20) (name MTCK) (type BiDi))
        (pin (num 21) (name MTDO) (type BiDi))
        (pin (num 22) (name GPIO2) (type BiDi))
        (pin (num 23) (name GPIO0) (type BiDi))
        (pin (num 24) (name GPIO4) (type BiDi))
        (pin (num 25) (name GPIO16) (type BiDi))
        (pin (num 26) (name VDD_SDIO) (type power_out))
        (pin (num 27) (name GPIO17) (type BiDi))
        (pin (num 28) (name SD_DATA_2) (type BiDi))
        (pin (num 29) (name SD_DATA_3) (type BiDi))
        (pin (num 30) (name SD_CMD) (type BiDi))
        (pin (num 31) (name SD_CLK) (type BiDi))
        (pin (num 32) (name SD_DATA_0) (type BiDi))
        (pin (num 33) (name SD_DATA_1) (type BiDi))
        (pin (num 34) (name GPIO5) (type BiDi))
        (pin (num 35) (name GPIO18) (type BiDi))
        (pin (num 36) (name GPIO23) (type BiDi))
        (pin (num 37) (name VDD3P3_CPU) (type power_in))
        (pin (num 38) (name GPIO19) (type BiDi))
        (pin (num 39) (name GPIO22) (type BiDi))
        (pin (num 40) (name U0RXD) (type BiDi))
        (pin (num 41) (name U0TXD) (type BiDi))
        (pin (num 42) (name GPIO21) (type BiDi))
        (pin (num 43) (name VDDA) (type power_in))
        (pin (num 44) (name XTAL_N) (type BiDi))
        (pin (num 45) (name XTAL_P) (type BiDi))
        (pin (num 46) (name VDDA) (type power_in))
        (pin (num 47) (name CAP2) (type passive))
        (pin (num 48) (name CAP1) (type passive))
        (pin (num 49) (name GND) (type power_in))))
    (libpart (lib ESP32-footprints-Shem-Lib) (part ISL91127)
      (fields
        (field (name Reference) U)
        (field (name Value) ISL91127))
      (pins
        (pin (num 1) (name LX2) (type input))
        (pin (num 2) (name LX2) (type input))
        (pin (num 3) (name PGND) (type input))
        (pin (num 4) (name LX1) (type input))
        (pin (num 5) (name LX1) (type input))
        (pin (num 6) (name PVIN) (type power_in))
        (pin (num 7) (name PVIN) (type power_in))
        (pin (num 8) (name PVIN) (type power_in))
        (pin (num 9) (name PVIN) (type power_out))
        (pin (num 10) (name VIN) (type power_in))
        (pin (num 11) (name EN) (type input))
        (pin (num 12) (name MODE) (type input))
        (pin (num 13) (name SGND) (type power_in))
        (pin (num 14) (name SGND) (type power_in))
        (pin (num 15) (name FB) (type passive))
        (pin (num 16) (name NC) (type input))
        (pin (num 17) (name VOUT) (type passive))
        (pin (num 18) (name VOUT) (type passive))
        (pin (num 19) (name VOUT) (type passive))
        (pin (num 20) (name VOUT) (type power_out))
        (pin (num 21) (name EPAD) (type input))))
    (libpart (lib device) (part L)
      (description Inductor)
      (footprints
        (fp Choke_*)
        (fp *Coil*)
        (fp Inductor_*)
        (fp L_*))
      (fields
        (field (name Reference) L)
        (field (name Value) L))
      (pins
        (pin (num 1) (name 1) (type passive))
        (pin (num 2) (name 2) (type passive))))
    (libpart (lib device) (part LED)
      (description "LED generic")
      (footprints
        (fp LED*))
      (fields
        (field (name Reference) D)
        (field (name Value) LED))
      (pins
        (pin (num 1) (name K) (type passive))
        (pin (num 2) (name A) (type passive))))
    (libpart (lib device) (part LED_Small)
      (description "LED, small symbol")
      (footprints
        (fp LED-*)
        (fp LED_*))
      (fields
        (field (name Reference) D)
        (field (name Value) LED_Small))
      (pins
        (pin (num 1) (name K) (type passive))
        (pin (num 2) (name A) (type passive))))
    (libpart (lib ltc4121-4v2) (part LTC4121-4.2)
      (fields
        (field (name Reference) U)
        (field (name Value) LTC4121-4.2))
      (pins
        (pin (num 1) (name INTV) (type input))
        (pin (num 2) (name BOOST) (type input))
        (pin (num 3) (name IN) (type input))
        (pin (num 4) (name SW) (type input))
        (pin (num 5) (name GND) (type input))
        (pin (num 6) (name MPPT) (type input))
        (pin (num 7) (name FREQ) (type input))
        (pin (num 8) (name CHGSNS) (type input))
        (pin (num 9) (name BAT) (type input))
        (pin (num 10) (name BATSNS) (type input))
        (pin (num 12) (name NTC) (type input))
        (pin (num 13) (name PROG) (type input))
        (pin (num 14) (name CHRG) (type input))
        (pin (num 15) (name FAULT) (type input))
        (pin (num 16) (name RUN) (type input))
        (pin (num 17) (name GND) (type input))))
    (libpart (lib conn) (part Micro_SD_Card_Det)
      (aliases
        (alias Micro_SD_Card_Det_Hirose_DM3AT))
      (description "Micro SD Card Socket with card detection pins")
      (docs https://www.hirose.com/product/en/download_file/key_name/DM3/category/Catalog/doc_file_id/49662/?file_category_id=4&item_id=195&is_series=1)
      (footprints
        (fp microSD*Card*Receptable*))
      (fields
        (field (name Reference) J)
        (field (name Value) Micro_SD_Card_Det))
      (pins
        (pin (num 1) (name DAT2) (type BiDi))
        (pin (num 2) (name DAT3/CD) (type BiDi))
        (pin (num 3) (name CMD) (type input))
        (pin (num 4) (name VDD) (type power_in))
        (pin (num 5) (name CLK) (type input))
        (pin (num 6) (name VSS) (type power_in))
        (pin (num 7) (name DAT0) (type input))
        (pin (num 8) (name DAT1) (type input))
        (pin (num 9) (name DET_B) (type passive))
        (pin (num 10) (name DET_A) (type passive))
        (pin (num 11) (name SHIELD) (type passive))))
    (libpart (lib device) (part Q_NPN_BCE)
      (description "Transistor NPN (general)")
      (fields
        (field (name Reference) Q)
        (field (name Value) Q_NPN_BCE))
      (pins
        (pin (num 1) (name B) (type input))
        (pin (num 2) (name C) (type passive))
        (pin (num 3) (name E) (type passive))))
    (libpart (lib device) (part R)
      (description Resistor)
      (footprints
        (fp R_*)
        (fp R_*))
      (fields
        (field (name Reference) R)
        (field (name Value) R))
      (pins
        (pin (num 1) (name ~) (type passive))
        (pin (num 2) (name ~) (type passive))))
    (libpart (lib LoRaNeT32-rescue) (part RN2483-RESCUE-LoRaNeT32)
      (fields
        (field (name Reference) U)
        (field (name Value) RN2483-RESCUE-LoRaNeT32))
      (pins
        (pin (num 1) (name GND) (type power_out))
        (pin (num 2) (name UART_RTS) (type passive))
        (pin (num 3) (name UART_CTS) (type passive))
        (pin (num 4) (name RESERVED) (type passive))
        (pin (num 5) (name RESERVED) (type passive))
        (pin (num 6) (name UART_TX) (type passive))
        (pin (num 7) (name UART_RX) (type passive))
        (pin (num 8) (name GND) (type passive))
        (pin (num 9) (name GPIO13) (type passive))
        (pin (num 10) (name GPIO12) (type passive))
        (pin (num 11) (name GND) (type power_in))
        (pin (num 12) (name VDD) (type passive))
        (pin (num 13) (name GPIO11) (type passive))
        (pin (num 14) (name GPIO10) (type passive))
        (pin (num 15) (name NC) (type passive))
        (pin (num 16) (name NC) (type passive))
        (pin (num 17) (name NC) (type passive))
        (pin (num 18) (name NC) (type passive))
        (pin (num 19) (name NC) (type passive))
        (pin (num 20) (name GND) (type power_in))
        (pin (num 21) (name GND) (type passive))
        (pin (num 22) (name GND) (type passive))
        (pin (num 23) (name RFH) (type passive))
        (pin (num 24) (name GND) (type passive))
        (pin (num 25) (name RFL) (type passive))
        (pin (num 26) (name GND) (type passive))
        (pin (num 27) (name GND) (type passive))
        (pin (num 28) (name GND) (type passive))
        (pin (num 29) (name NC) (type passive))
        (pin (num 30) (name TEST0) (type passive))
        (pin (num 31) (name TEST1) (type passive))
        (pin (num 32) (name /RESET) (type passive))
        (pin (num 33) (name GND) (type passive))
        (pin (num 34) (name VDD) (type passive))
        (pin (num 35) (name GPIO0) (type passive))
        (pin (num 36) (name GPIO1) (type passive))
        (pin (num 37) (name GPIO2) (type passive))
        (pin (num 38) (name GPIO3) (type passive))
        (pin (num 39) (name GPIO4) (type passive))
        (pin (num 40) (name GPIO5) (type passive))
        (pin (num 41) (name GND) (type passive))
        (pin (num 42) (name NC) (type passive))
        (pin (num 43) (name GPIO6) (type passive))
        (pin (num 44) (name GPIO7) (type passive))
        (pin (num 45) (name GPIO8) (type passive))
        (pin (num 46) (name GPIO9) (type passive))
        (pin (num 47) (name GND) (type power_in))))
    (libpart (lib device) (part R_Small)
      (description "Resistor, small symbol")
      (footprints
        (fp R_*))
      (fields
        (field (name Reference) R)
        (field (name Value) R_Small))
      (pins
        (pin (num 1) (name ~) (type passive))
        (pin (num 2) (name ~) (type passive))))
    (libpart (lib ESP32-footprints-Shem-Lib) (part USB_OTG2)
      (description "USB mini/micro connector")
      (footprints
        (fp USB*))
      (fields
        (field (name Reference) J)
        (field (name Value) USB_OTG2))
      (pins
        (pin (num 1) (name VBUS) (type power_out))
        (pin (num 2) (name D-) (type passive))
        (pin (num 3) (name D+) (type passive))
        (pin (num 4) (name ID) (type passive))
        (pin (num 5) (name GND) (type power_in))
        (pin (num 6) (name Shield) (type passive))))
    (libpart (lib Winbond) (part W25Q16JVSNIQ)
      (fields
        (field (name Reference) U)
        (field (name Value) W25Q16JVSNIQ)
        (field (name Footprint) IPC7351-Nominal:SOIC127P600X175-8)
        (field (name Datasheet) https://www.winbond.com/resource-files/w25q16jv%20spi%20revd%2008122016.pdf)
        (field (name MPN) W25Q16JVSNIQ)
        (field (name Manuf) Winbond)
        (field (name BOM) "Winbond W25Q16JVSNIQ"))
      (pins
        (pin (num 1) (name ~CS) (type input))
        (pin (num 2) (name DOUT/DQ1) (type BiDi))
        (pin (num 3) (name DQ2) (type input))
        (pin (num 4) (name GND) (type power_in))
        (pin (num 5) (name DIN/DQ0) (type BiDi))
        (pin (num 6) (name CLK) (type input))
        (pin (num 7) (name DQ3) (type input))
        (pin (num 8) (name V+) (type power_in)))))
  (libraries
    (library (logical device)
      (uri /usr/share/kicad/library/device.lib))
    (library (logical LoRaNeT32-rescue)
      (uri /home/morgan/devel/LoRaNeT32/LoRaNeT32-rescue.lib))
    (library (logical conn)
      (uri /usr/share/kicad/library/conn.lib))
    (library (logical ESP32-footprints-Shem-Lib)
      (uri /home/morgan/devel/LoRaNeT32/lib/ESP32-footprints-Shem-Lib.lib))
    (library (logical ltc4121-4v2)
      (uri /home/morgan/devel/LoRaNeT32/ltc4121-4v2.lib))
    (library (logical CON-SMA-EDGE)
      (uri /home/morgan/devel/LoRaNeT32/lib/CON-SMA-EDGE.lib))
    (library (logical Winbond)
      (uri /home/morgan/devel/LoRaNeT32/lib/Winbond.lib))
    (library (logical CP2102)
      (uri /home/morgan/.kicad/CP2102.lib)))
  (nets
    (net (code 1) (name "Net-(D1-Pad1)")
      (node (ref J2) (pin 1))
      (node (ref D1) (pin 1)))
    (net (code 2) (name VBUS)
      (node (ref R4) (pin 1))
      (node (ref J1) (pin 1))
      (node (ref C4) (pin 1))
      (node (ref C5) (pin 1))
      (node (ref J2) (pin 3))
      (node (ref U4) (pin 7))
      (node (ref U4) (pin 8)))
    (net (code 3) (name "Net-(R1-Pad1)")
      (node (ref U1) (pin 6))
      (node (ref R1) (pin 1))
      (node (ref R3) (pin 2)))
    (net (code 4) (name "Net-(R6-Pad1)")
      (node (ref R6) (pin 1))
      (node (ref U1) (pin 13)))
    (net (code 5) (name GND)
      (node (ref U4) (pin 29))
      (node (ref ANT1) (pin 5))
      (node (ref ANT1) (pin 4))
      (node (ref ANT1) (pin 3))
      (node (ref ANT1) (pin 2))
      (node (ref ANT2) (pin 5))
      (node (ref U4) (pin 3))
      (node (ref ANT2) (pin 4))
      (node (ref U3) (pin 3))
      (node (ref U2) (pin 28))
      (node (ref U3) (pin 14))
      (node (ref U3) (pin 21))
      (node (ref U3) (pin 13))
      (node (ref U1) (pin 5))
      (node (ref C9) (pin 2))
      (node (ref C10) (pin 1))
      (node (ref C11) (pin 1))
      (node (ref U2) (pin 1))
      (node (ref U2) (pin 27))
      (node (ref U2) (pin 26))
      (node (ref U2) (pin 24))
      (node (ref U2) (pin 33))
      (node (ref U2) (pin 8))
      (node (ref ANT2) (pin 2))
      (node (ref U2) (pin 22))
      (node (ref U2) (pin 41))
      (node (ref U2) (pin 21))
      (node (ref U2) (pin 11))
      (node (ref U2) (pin 20))
      (node (ref C3) (pin 2))
      (node (ref C2) (pin 2))
      (node (ref U2) (pin 47))
      (node (ref ANT2) (pin 3))
      (node (ref J1) (pin 6))
      (node (ref J1) (pin 5))
      (node (ref C4) (pin 2))
      (node (ref C5) (pin 2))
      (node (ref C27) (pin 2))
      (node (ref C23) (pin 2))
      (node (ref C25) (pin 2))
      (node (ref C16) (pin 2))
      (node (ref R1) (pin 2))
      (node (ref Y2) (pin 3))
      (node (ref R6) (pin 2))
      (node (ref Y2) (pin 2))
      (node (ref R5) (pin 2))
      (node (ref C15) (pin 2))
      (node (ref C24) (pin 2))
      (node (ref C26) (pin 2))
      (node (ref C19) (pin 2))
      (node (ref C18) (pin 2))
      (node (ref C8) (pin 2))
      (node (ref C12) (pin 2))
      (node (ref U1) (pin 17))
      (node (ref J3) (pin 1))
      (node (ref C17) (pin 2))
      (node (ref C7) (pin 1))
      (node (ref C21) (pin 2))
      (node (ref U1) (pin 7))
      (node (ref C28) (pin 2))
      (node (ref C22) (pin 2))
      (node (ref U1) (pin 12))
      (node (ref C1) (pin 2))
      (node (ref ANT3) (pin 4))
      (node (ref ANT3) (pin 3))
      (node (ref ANT3) (pin 5))
      (node (ref J5) (pin 4))
      (node (ref ANT3) (pin 2))
      (node (ref U8) (pin 4))
      (node (ref J4) (pin 1))
      (node (ref J5) (pin 11))
      (node (ref U5) (pin 49)))
    (net (code 6) (name /CHGSNS)
      (node (ref U1) (pin 8))
      (node (ref L2) (pin 2)))
    (net (code 7) (name "Net-(D1-Pad2)")
      (node (ref J4) (pin 2))
      (node (ref D1) (pin 2)))
    (net (code 8) (name 3V3)
      (node (ref R9) (pin 1))
      (node (ref U2) (pin 12))
      (node (ref U2) (pin 34))
      (node (ref C28) (pin 1))
      (node (ref C22) (pin 1))
      (node (ref C27) (pin 1))
      (node (ref U5) (pin 43))
      (node (ref U5) (pin 46))
      (node (ref U5) (pin 1))
      (node (ref U5) (pin 3))
      (node (ref U5) (pin 4))
      (node (ref C19) (pin 1))
      (node (ref C16) (pin 1))
      (node (ref C24) (pin 1))
      (node (ref C23) (pin 1))
      (node (ref C25) (pin 1))
      (node (ref C26) (pin 1))
      (node (ref U5) (pin 37))
      (node (ref U5) (pin 19))
      (node (ref J5) (pin 6))
      (node (ref U3) (pin 19))
      (node (ref U3) (pin 18))
      (node (ref U3) (pin 17))
      (node (ref U3) (pin 15))
      (node (ref C11) (pin 2))
      (node (ref C10) (pin 2))
      (node (ref U3) (pin 20)))
    (net (code 9) (name "Net-(L1-Pad2)")
      (node (ref L1) (pin 2))
      (node (ref U3) (pin 5))
      (node (ref U3) (pin 4)))
    (net (code 10) (name "Net-(L1-Pad1)")
      (node (ref L1) (pin 1))
      (node (ref U3) (pin 2))
      (node (ref U3) (pin 1)))
    (net (code 11) (name "Net-(C7-Pad2)")
      (node (ref U1) (pin 9))
      (node (ref C7) (pin 2))
      (node (ref J3) (pin 2))
      (node (ref U1) (pin 10))
      (node (ref C9) (pin 1))
      (node (ref U3) (pin 10))
      (node (ref U3) (pin 9))
      (node (ref U3) (pin 8))
      (node (ref U3) (pin 7))
      (node (ref U3) (pin 6)))
    (net (code 12) (name /Lora/LORA_RTS)
      (node (ref U2) (pin 2)))
    (net (code 13) (name /RUN)
      (node (ref U1) (pin 16))
      (node (ref R5) (pin 1))
      (node (ref R2) (pin 2)))
    (net (code 14) (name /IN)
      (node (ref R2) (pin 1))
      (node (ref J2) (pin 2))
      (node (ref C1) (pin 1))
      (node (ref U1) (pin 3))
      (node (ref R3) (pin 1)))
    (net (code 15) (name /Lora/LORA_CTS)
      (node (ref U2) (pin 3)))
    (net (code 16) (name /ESP32/ESP32_TXD1)
      (node (ref U2) (pin 7))
      (node (ref U5) (pin 27)))
    (net (code 17) (name /ESP32/ESP32_RXD1)
      (node (ref U5) (pin 25))
      (node (ref U2) (pin 6)))
    (net (code 18) (name /Lora/LORA_RX1)
      (node (ref U2) (pin 14)))
    (net (code 19) (name /Lora/LORA_TX1)
      (node (ref U2) (pin 13)))
    (net (code 20) (name "Net-(R18-Pad2)")
      (node (ref U1) (pin 15))
      (node (ref R18) (pin 2)))
    (net (code 21) (name "Net-(D4-Pad1)")
      (node (ref D4) (pin 1))
      (node (ref R18) (pin 1)))
    (net (code 22) (name "Net-(C8-Pad1)")
      (node (ref D3) (pin 2))
      (node (ref U1) (pin 1))
      (node (ref D4) (pin 2))
      (node (ref C8) (pin 1)))
    (net (code 23) (name "Net-(D3-Pad1)")
      (node (ref R17) (pin 1))
      (node (ref D3) (pin 1)))
    (net (code 24) (name "Net-(R17-Pad2)")
      (node (ref U1) (pin 14))
      (node (ref R17) (pin 2)))
    (net (code 25) (name "Net-(C6-Pad1)")
      (node (ref C6) (pin 1))
      (node (ref L2) (pin 1))
      (node (ref U1) (pin 4)))
    (net (code 26) (name "Net-(C6-Pad2)")
      (node (ref U1) (pin 2))
      (node (ref C6) (pin 2)))
    (net (code 27) (name /CP2102/CP_RX)
      (node (ref U5) (pin 41))
      (node (ref U4) (pin 25)))
    (net (code 28) (name /CP2102/CP_RTS)
      (node (ref U4) (pin 24))
      (node (ref Q2) (pin 3))
      (node (ref R10) (pin 2)))
    (net (code 29) (name /CP2102/CP_DTR)
      (node (ref U4) (pin 28))
      (node (ref Q1) (pin 3))
      (node (ref R11) (pin 2)))
    (net (code 30) (name /CP2102/CP_TX)
      (node (ref U4) (pin 26))
      (node (ref U5) (pin 40)))
    (net (code 31) (name "Net-(U3-Pad16)")
      (node (ref U3) (pin 16)))
    (net (code 32) (name "Net-(U3-Pad12)")
      (node (ref U3) (pin 12)))
    (net (code 33) (name "Net-(U3-Pad11)")
      (node (ref U3) (pin 11)))
    (net (code 34) (name "Net-(R4-Pad2)")
      (node (ref U4) (pin 9))
      (node (ref R4) (pin 2)))
    (net (code 35) (name "Net-(J1-Pad3)")
      (node (ref J1) (pin 3))
      (node (ref U4) (pin 4)))
    (net (code 36) (name "Net-(J1-Pad2)")
      (node (ref U4) (pin 5))
      (node (ref J1) (pin 2)))
    (net (code 37) (name "Net-(U4-Pad2)")
      (node (ref U4) (pin 2)))
    (net (code 38) (name "Net-(U4-Pad1)")
      (node (ref U4) (pin 1)))
    (net (code 39) (name CP_VDD)
      (node (ref R8) (pin 1))
      (node (ref R7) (pin 1))
      (node (ref U4) (pin 6))
      (node (ref C3) (pin 1))
      (node (ref C2) (pin 1)))
    (net (code 40) (name "Net-(D6-Pad2)")
      (node (ref D6) (pin 2))
      (node (ref R8) (pin 2)))
    (net (code 41) (name "Net-(D5-Pad1)")
      (node (ref D5) (pin 1))
      (node (ref U4) (pin 19)))
    (net (code 42) (name "Net-(D5-Pad2)")
      (node (ref D5) (pin 2))
      (node (ref R7) (pin 2)))
    (net (code 43) (name "Net-(U4-Pad14)")
      (node (ref U4) (pin 14)))
    (net (code 44) (name "Net-(U4-Pad20)")
      (node (ref U4) (pin 20)))
    (net (code 45) (name "Net-(U4-Pad21)")
      (node (ref U4) (pin 21)))
    (net (code 46) (name "Net-(U4-Pad27)")
      (node (ref U4) (pin 27)))
    (net (code 47) (name "Net-(U4-Pad23)")
      (node (ref U4) (pin 23)))
    (net (code 48) (name "Net-(U4-Pad22)")
      (node (ref U4) (pin 22)))
    (net (code 49) (name "Net-(U4-Pad10)")
      (node (ref U4) (pin 10)))
    (net (code 50) (name "Net-(U4-Pad13)")
      (node (ref U4) (pin 13)))
    (net (code 51) (name "Net-(U4-Pad16)")
      (node (ref U4) (pin 16)))
    (net (code 52) (name "Net-(U4-Pad15)")
      (node (ref U4) (pin 15)))
    (net (code 53) (name "Net-(U4-Pad17)")
      (node (ref U4) (pin 17)))
    (net (code 54) (name "Net-(D6-Pad1)")
      (node (ref U4) (pin 18))
      (node (ref D6) (pin 1)))
    (net (code 55) (name "Net-(U4-Pad12)")
      (node (ref U4) (pin 12)))
    (net (code 56) (name "Net-(U4-Pad11)")
      (node (ref U4) (pin 11)))
    (net (code 57) (name "Net-(J1-Pad4)")
      (node (ref J1) (pin 4)))
    (net (code 58) (name "Net-(U2-Pad39)")
      (node (ref U2) (pin 39)))
    (net (code 59) (name "Net-(U2-Pad29)")
      (node (ref U2) (pin 29)))
    (net (code 60) (name "Net-(U2-Pad19)")
      (node (ref U2) (pin 19)))
    (net (code 61) (name "Net-(U2-Pad38)")
      (node (ref U2) (pin 38)))
    (net (code 62) (name "Net-(U2-Pad18)")
      (node (ref U2) (pin 18)))
    (net (code 63) (name "Net-(ANT1-Pad1)")
      (node (ref ANT1) (pin 1))
      (node (ref U2) (pin 25)))
    (net (code 64) (name "Net-(ANT2-Pad1)")
      (node (ref ANT2) (pin 1))
      (node (ref U2) (pin 23)))
    (net (code 65) (name "Net-(U2-Pad9)")
      (node (ref U2) (pin 9)))
    (net (code 66) (name "Net-(U2-Pad31)")
      (node (ref U2) (pin 31)))
    (net (code 67) (name "Net-(U2-Pad40)")
      (node (ref U2) (pin 40)))
    (net (code 68) (name "Net-(U2-Pad30)")
      (node (ref U2) (pin 30)))
    (net (code 69) (name "Net-(U2-Pad10)")
      (node (ref U2) (pin 10)))
    (net (code 70) (name "Net-(R9-Pad2)")
      (node (ref U2) (pin 32))
      (node (ref R9) (pin 2)))
    (net (code 71) (name "Net-(U2-Pad5)")
      (node (ref U2) (pin 5)))
    (net (code 72) (name "Net-(U2-Pad4)")
      (node (ref U2) (pin 4)))
    (net (code 73) (name "Net-(U2-Pad15)")
      (node (ref U2) (pin 15)))
    (net (code 74) (name "Net-(U2-Pad37)")
      (node (ref U2) (pin 37)))
    (net (code 75) (name "Net-(U2-Pad17)")
      (node (ref U2) (pin 17)))
    (net (code 76) (name "Net-(U2-Pad46)")
      (node (ref U2) (pin 46)))
    (net (code 77) (name "Net-(U2-Pad36)")
      (node (ref U2) (pin 36)))
    (net (code 78) (name "Net-(U2-Pad16)")
      (node (ref U2) (pin 16)))
    (net (code 79) (name "Net-(U2-Pad45)")
      (node (ref U2) (pin 45)))
    (net (code 80) (name "Net-(U2-Pad35)")
      (node (ref U2) (pin 35)))
    (net (code 81) (name "Net-(U2-Pad44)")
      (node (ref U2) (pin 44)))
    (net (code 82) (name "Net-(U2-Pad43)")
      (node (ref U2) (pin 43)))
    (net (code 83) (name "Net-(U2-Pad42)")
      (node (ref U2) (pin 42)))
    (net (code 84) (name "Net-(ANT3-Pad1)")
      (node (ref ANT3) (pin 1))
      (node (ref U5) (pin 2)))
    (net (code 85) (name "Net-(U5-Pad33)")
      (node (ref U5) (pin 33))
      (node (ref U8) (pin 2)))
    (net (code 86) (name "Net-(U5-Pad32)")
      (node (ref U8) (pin 5))
      (node (ref U5) (pin 32)))
    (net (code 87) (name "Net-(U5-Pad31)")
      (node (ref U8) (pin 6))
      (node (ref U5) (pin 31)))
    (net (code 88) (name ESP_VDD_SDIO)
      (node (ref U5) (pin 26))
      (node (ref C21) (pin 1))
      (node (ref U8) (pin 8)))
    (net (code 89) (name "Net-(U5-Pad13)")
      (node (ref U5) (pin 13))
      (node (ref Y3) (pin 1)))
    (net (code 90) (name "Net-(C18-Pad1)")
      (node (ref C18) (pin 1))
      (node (ref U5) (pin 45))
      (node (ref Y2) (pin 4)))
    (net (code 91) (name "Net-(C20-Pad2)")
      (node (ref C20) (pin 2))
      (node (ref U5) (pin 47))
      (node (ref R12) (pin 2)))
    (net (code 92) (name "Net-(C17-Pad1)")
      (node (ref C20) (pin 1))
      (node (ref C17) (pin 1))
      (node (ref U5) (pin 48))
      (node (ref R12) (pin 1)))
    (net (code 93) (name "Net-(U5-Pad29)")
      (node (ref U8) (pin 7))
      (node (ref U5) (pin 29)))
    (net (code 94) (name "Net-(U5-Pad30)")
      (node (ref U8) (pin 1))
      (node (ref U5) (pin 30)))
    (net (code 95) (name "Net-(U5-Pad28)")
      (node (ref U8) (pin 3))
      (node (ref U5) (pin 28)))
    (net (code 96) (name "Net-(C12-Pad1)")
      (node (ref U5) (pin 9))
      (node (ref C12) (pin 1))
      (node (ref Q2) (pin 2)))
    (net (code 97) (name "Net-(J5-Pad5)")
      (node (ref U5) (pin 17))
      (node (ref J5) (pin 5)))
    (net (code 98) (name "Net-(J5-Pad3)")
      (node (ref J5) (pin 3))
      (node (ref U5) (pin 21)))
    (net (code 99) (name "Net-(J5-Pad2)")
      (node (ref U5) (pin 20))
      (node (ref J5) (pin 2)))
    (net (code 100) (name "Net-(J5-Pad1)")
      (node (ref J5) (pin 1))
      (node (ref U5) (pin 18)))
    (net (code 101) (name "Net-(Q1-Pad1)")
      (node (ref Q1) (pin 1))
      (node (ref R10) (pin 1)))
    (net (code 102) (name "Net-(J5-Pad9)")
      (node (ref J5) (pin 9))
      (node (ref U5) (pin 15)))
    (net (code 103) (name "Net-(Q2-Pad1)")
      (node (ref Q2) (pin 1))
      (node (ref R11) (pin 1)))
    (net (code 104) (name "Net-(Q1-Pad2)")
      (node (ref U5) (pin 23))
      (node (ref Q1) (pin 2)))
    (net (code 105) (name "Net-(J5-Pad10)")
      (node (ref J5) (pin 10))
      (node (ref U5) (pin 34)))
    (net (code 106) (name "Net-(J5-Pad8)")
      (node (ref U5) (pin 24))
      (node (ref J5) (pin 8)))
    (net (code 107) (name "Net-(J5-Pad7)")
      (node (ref J5) (pin 7))
      (node (ref U5) (pin 22)))
    (net (code 108) (name "Net-(C15-Pad1)")
      (node (ref C15) (pin 1))
      (node (ref U5) (pin 44))
      (node (ref Y2) (pin 1)))
    (net (code 109) (name "Net-(U5-Pad39)")
      (node (ref U5) (pin 39)))
    (net (code 110) (name "Net-(U5-Pad38)")
      (node (ref U5) (pin 38)))
    (net (code 111) (name "Net-(U5-Pad11)")
      (node (ref U5) (pin 11)))
    (net (code 112) (name "Net-(U5-Pad10)")
      (node (ref U5) (pin 10)))
    (net (code 113) (name "Net-(U5-Pad8)")
      (node (ref U5) (pin 8)))
    (net (code 114) (name "Net-(U5-Pad7)")
      (node (ref U5) (pin 7)))
    (net (code 115) (name "Net-(U5-Pad6)")
      (node (ref U5) (pin 6)))
    (net (code 116) (name "Net-(U5-Pad5)")
      (node (ref U5) (pin 5)))
    (net (code 117) (name "Net-(U5-Pad36)")
      (node (ref U5) (pin 36)))
    (net (code 118) (name "Net-(U5-Pad16)")
      (node (ref U5) (pin 16)))
    (net (code 119) (name "Net-(U5-Pad35)")
      (node (ref U5) (pin 35)))
    (net (code 120) (name "Net-(U5-Pad14)")
      (node (ref U5) (pin 14)))
    (net (code 121) (name "Net-(U5-Pad42)")
      (node (ref U5) (pin 42)))
    (net (code 122) (name "Net-(U5-Pad12)")
      (node (ref U5) (pin 12))
      (node (ref Y3) (pin 2)))))