EESchema Schematic File Version 2
LIBS:LoRaNeT32-rescue
LIBS:power
LIBS:device
LIBS:transistors
LIBS:conn
LIBS:linear
LIBS:regul
LIBS:74xx
LIBS:cmos4000
LIBS:adc-dac
LIBS:memory
LIBS:xilinx
LIBS:microcontrollers
LIBS:dsp
LIBS:microchip
LIBS:analog_switches
LIBS:motorola
LIBS:texas
LIBS:intel
LIBS:audio
LIBS:interface
LIBS:digital-audio
LIBS:philips
LIBS:display
LIBS:cypress
LIBS:siliconi
LIBS:opto
LIBS:atmel
LIBS:contrib
LIBS:valves
LIBS:rn2483
LIBS:ESP32-footprints-Shem-Lib
LIBS:espressif-xess
LIBS:ft2232
LIBS:CON-SMA-EDGE
LIBS:Winbond
LIBS:CP2102
LIBS:ltc4121-4v2
LIBS:LoRaNeT32-cache
EELAYER 25 0
EELAYER END
$Descr A4 11693 8268
encoding utf-8
Sheet 1 4
Title ""
Date ""
Rev ""
Comp ""
Comment1 ""
Comment2 ""
Comment3 ""
Comment4 ""
$EndDescr
$Comp
L R R3
U 1 1 58E1D197
P 3100 2000
F 0 "R3" V 3180 2000 50  0000 C CNN
F 1 "698k" V 3100 2000 50  0000 C CNN
F 2 "Resistors_SMD:R_0402" V 3030 2000 50  0001 C CNN
F 3 "" H 3100 2000 50  0001 C CNN
	1    3100 2000
	-1   0    0    -1  
$EndComp
$Comp
L L L2
U 1 1 58E35265
P 5750 2100
F 0 "L2" V 5700 2100 50  0000 C CNN
F 1 "47u" V 5825 2100 50  0000 C CNN
F 2 "Choke_SMD:Choke_SMD_6.3x6.3_H3" H 5750 2100 50  0001 C CNN
F 3 "" H 5750 2100 50  0001 C CNN
	1    5750 2100
	0    -1   -1   0   
$EndComp
$Comp
L GND #PWR01
U 1 1 58E35D6F
P 5550 2750
F 0 "#PWR01" H 5550 2500 50  0001 C CNN
F 1 "GND" H 5550 2600 50  0000 C CNN
F 2 "" H 5550 2750 50  0001 C CNN
F 3 "" H 5550 2750 50  0001 C CNN
	1    5550 2750
	1    0    0    -1  
$EndComp
$Comp
L CONN_01X02 J3
U 1 1 58E389B1
P 5950 2650
F 0 "J3" H 5950 2800 50  0000 C CNN
F 1 "BATT" V 6050 2650 50  0000 C CNN
F 2 "Connectors_JST:JST_PH_S2B-PH-K_02x2.00mm_Angled" H 5950 2650 50  0001 C CNN
F 3 "" H 5950 2650 50  0001 C CNN
	1    5950 2650
	0    1    1    0   
$EndComp
$Comp
L CONN_01X02 J4
U 1 1 58E5A098
P 1900 1850
F 0 "J4" H 1900 2000 50  0000 C CNN
F 1 "SOLAR" V 2000 1850 50  0000 C CNN
F 2 "Connectors_JST:JST_PH_S2B-PH-K_02x2.00mm_Angled" H 1900 1850 50  0001 C CNN
F 3 "" H 1900 1850 50  0001 C CNN
	1    1900 1850
	-1   0    0    1   
$EndComp
$Comp
L LED D3
U 1 1 58F326F2
P 4750 1050
F 0 "D3" H 4750 1150 50  0000 C CNN
F 1 "LED" H 4750 950 50  0000 C CNN
F 2 "LEDs:LED_0402" H 4750 1050 50  0001 C CNN
F 3 "" H 4750 1050 50  0001 C CNN
	1    4750 1050
	1    0    0    -1  
$EndComp
$Comp
L LED D4
U 1 1 58F327CF
P 4750 1450
F 0 "D4" H 4750 1550 50  0000 C CNN
F 1 "LED" H 4750 1350 50  0000 C CNN
F 2 "LEDs:LED_0402" H 4750 1450 50  0001 C CNN
F 3 "" H 4750 1450 50  0001 C CNN
	1    4750 1450
	1    0    0    -1  
$EndComp
$Comp
L R R18
U 1 1 58F32950
P 4350 1450
F 0 "R18" V 4430 1450 50  0000 C CNN
F 1 "10k" V 4350 1450 50  0000 C CNN
F 2 "Resistors_SMD:R_0402" V 4280 1450 50  0001 C CNN
F 3 "" H 4350 1450 50  0001 C CNN
	1    4350 1450
	0    1    1    0   
$EndComp
$Comp
L R R17
U 1 1 58F32B0B
P 4350 1050
F 0 "R17" V 4430 1050 50  0000 C CNN
F 1 "10k" V 4350 1050 50  0000 C CNN
F 2 "Resistors_SMD:R_0402" V 4280 1050 50  0001 C CNN
F 3 "" H 4350 1050 50  0001 C CNN
	1    4350 1050
	0    1    1    0   
$EndComp
$Comp
L LTC4121-4.2 U1
U 1 1 58FD9FCA
P 4600 2450
F 0 "U1" H 4500 3200 60  0000 C CNN
F 1 "LTC4121-4.2" H 4350 2150 60  0000 C CNN
F 2 "Housings_DFN_QFN:QFN-16-1EP_3x3mm_Pitch0.5mm" H 4600 2450 60  0001 C CNN
F 3 "" H 4600 2450 60  0001 C CNN
	1    4600 2450
	1    0    0    -1  
$EndComp
$Comp
L C_Small C6
U 1 1 58FDA6D1
P 5400 1950
F 0 "C6" H 5410 2020 50  0000 L CNN
F 1 "22n" H 5410 1870 50  0000 L CNN
F 2 "Capacitors_SMD:C_0603" H 5400 1950 50  0001 C CNN
F 3 "" H 5400 1950 50  0001 C CNN
	1    5400 1950
	0    1    1    0   
$EndComp
$Comp
L C_Small C7
U 1 1 58FDACB6
P 5550 2450
F 0 "C7" H 5560 2520 50  0000 L CNN
F 1 "22n" H 5560 2370 50  0000 L CNN
F 2 "Capacitors_SMD:C_0603" H 5550 2450 50  0001 C CNN
F 3 "" H 5550 2450 50  0001 C CNN
	1    5550 2450
	-1   0    0    1   
$EndComp
$Comp
L C_Small C8
U 1 1 58FDB2A1
P 6300 2000
F 0 "C8" H 6310 2070 50  0000 L CNN
F 1 "2.2u" H 6310 1920 50  0000 L CNN
F 2 "Capacitors_SMD:C_0603" H 6300 2000 50  0001 C CNN
F 3 "" H 6300 2000 50  0001 C CNN
	1    6300 2000
	1    0    0    -1  
$EndComp
$Comp
L GND #PWR02
U 1 1 58FDB729
P 6300 2350
F 0 "#PWR02" H 6300 2100 50  0001 C CNN
F 1 "GND" H 6300 2200 50  0000 C CNN
F 2 "" H 6300 2350 50  0001 C CNN
F 3 "" H 6300 2350 50  0001 C CNN
	1    6300 2350
	1    0    0    -1  
$EndComp
$Comp
L R_Small R6
U 1 1 58FDC614
P 3700 2750
F 0 "R6" H 3730 2770 50  0000 L CNN
F 1 "3.01k" H 3730 2710 50  0000 L CNN
F 2 "Resistors_SMD:R_0402" H 3700 2750 50  0001 C CNN
F 3 "" H 3700 2750 50  0001 C CNN
	1    3700 2750
	1    0    0    -1  
$EndComp
$Comp
L GND #PWR03
U 1 1 58FDCC8B
P 3700 3050
F 0 "#PWR03" H 3700 2800 50  0001 C CNN
F 1 "GND" H 3700 2900 50  0000 C CNN
F 2 "" H 3700 3050 50  0001 C CNN
F 3 "" H 3700 3050 50  0001 C CNN
	1    3700 3050
	1    0    0    -1  
$EndComp
$Comp
L R R1
U 1 1 58FDDEA0
P 3100 2450
F 0 "R1" V 3180 2450 50  0000 C CNN
F 1 "100k" V 3100 2450 50  0000 C CNN
F 2 "Resistors_SMD:R_0402" V 3030 2450 50  0001 C CNN
F 3 "" H 3100 2450 50  0001 C CNN
	1    3100 2450
	1    0    0    -1  
$EndComp
$Comp
L R_Small R5
U 1 1 58FDFE03
P 3300 2450
F 0 "R5" H 3330 2470 50  0000 L CNN
F 1 "107k" V 3300 2400 50  0000 L CNN
F 2 "Resistors_SMD:R_0402" H 3300 2450 50  0001 C CNN
F 3 "" H 3300 2450 50  0001 C CNN
	1    3300 2450
	1    0    0    -1  
$EndComp
$Comp
L R R2
U 1 1 58FE000C
P 3300 2000
F 0 "R2" V 3380 2000 50  0000 C CNN
F 1 "464k" V 3300 2000 50  0000 C CNN
F 2 "Resistors_SMD:R_0402" V 3230 2000 50  0001 C CNN
F 3 "" H 3300 2000 50  0001 C CNN
	1    3300 2000
	1    0    0    -1  
$EndComp
$Comp
L C_Small C1
U 1 1 58FE14D0
P 2750 2000
F 0 "C1" H 2760 2070 50  0000 L CNN
F 1 "10u" H 2760 1920 50  0000 L CNN
F 2 "Capacitors_SMD:C_0603" H 2750 2000 50  0001 C CNN
F 3 "" H 2750 2000 50  0001 C CNN
	1    2750 2000
	1    0    0    -1  
$EndComp
$Sheet
S 950  3450 1800 2300
U 58E2D927
F0 "Lora" 60
F1 "LoRaNeT32_Lora.sch" 60
F2 "LORA_TX1" I R 2750 3850 60 
F3 "LORA_RX1" I R 2750 3750 60 
F4 "LORA_TX0" I R 2750 4950 60 
F5 "LORA_RX0" I R 2750 5050 60 
F6 "LORA_CTS" I R 2750 4050 60 
F7 "LORA_RTS" I R 2750 3950 60 
$EndSheet
$Sheet
S 3450 3450 1300 1150
U 58E299D2
F0 "CP2102" 60
F1 "LoRaNeT32_CP2102.sch" 60
F2 "CP_RX" I R 4750 3650 60 
F3 "CP_TX" I R 4750 3550 60 
F4 "CP_RTS" I R 4750 3850 60 
F5 "CP_DTR" I R 4750 3950 60 
F6 "VBUS" I L 3450 3550 60 
$EndSheet
Text Label 2900 1800 0    60   ~ 0
IN
Text Label 3550 2150 0    60   ~ 0
RUN
$Comp
L CONN_01X03 J2
U 1 1 58FEC747
P 3000 1550
F 0 "J2" H 3000 1750 50  0000 C CNN
F 1 "CONN_01X03" V 3100 1550 50  0000 C CNN
F 2 "Buttons_Switches_SMD:SW_SPDT_PCM12" H 3000 1550 50  0001 C CNN
F 3 "" H 3000 1550 50  0001 C CNN
	1    3000 1550
	1    0    0    1   
$EndComp
$Comp
L L L1
U 1 1 58FEE083
P 7600 1850
F 0 "L1" V 7550 1850 50  0000 C CNN
F 1 "1u" V 7675 1850 50  0000 C CNN
F 2 "Choke_SMD:Choke_SMD_6.3x6.3_H3" H 7600 1850 50  0001 C CNN
F 3 "" H 7600 1850 50  0001 C CNN
	1    7600 1850
	1    0    0    -1  
$EndComp
$Comp
L C_Small C9
U 1 1 58FEEA84
P 7700 2700
F 0 "C9" H 7710 2770 50  0000 L CNN
F 1 "10u" H 7710 2620 50  0000 L CNN
F 2 "Capacitors_SMD:C_0603" H 7700 2700 50  0001 C CNN
F 3 "" H 7700 2700 50  0001 C CNN
	1    7700 2700
	1    0    0    -1  
$EndComp
$Comp
L GND #PWR04
U 1 1 58FEF00C
P 7700 2850
F 0 "#PWR04" H 7700 2600 50  0001 C CNN
F 1 "GND" H 7700 2700 50  0000 C CNN
F 2 "" H 7700 2850 50  0001 C CNN
F 3 "" H 7700 2850 50  0001 C CNN
	1    7700 2850
	1    0    0    -1  
$EndComp
Text GLabel 10300 1850 2    60   Output ~ 0
3V3
$Comp
L C_Small C10
U 1 1 58FEFB1A
P 9900 2050
F 0 "C10" H 9910 2120 50  0000 L CNN
F 1 "22n" H 9910 1970 50  0000 L CNN
F 2 "Capacitors_SMD:C_0603" H 9900 2050 50  0001 C CNN
F 3 "" H 9900 2050 50  0001 C CNN
	1    9900 2050
	-1   0    0    1   
$EndComp
$Comp
L C_Small C11
U 1 1 58FF0148
P 10100 2050
F 0 "C11" H 10110 2120 50  0000 L CNN
F 1 "22n" H 10110 1970 50  0000 L CNN
F 2 "Capacitors_SMD:C_0603" H 10100 2050 50  0001 C CNN
F 3 "" H 10100 2050 50  0001 C CNN
	1    10100 2050
	-1   0    0    1   
$EndComp
$Comp
L GND #PWR05
U 1 1 58FF05E3
P 10000 2750
F 0 "#PWR05" H 10000 2500 50  0001 C CNN
F 1 "GND" H 10000 2600 50  0000 C CNN
F 2 "" H 10000 2750 50  0001 C CNN
F 3 "" H 10000 2750 50  0001 C CNN
	1    10000 2750
	1    0    0    -1  
$EndComp
$Comp
L GND #PWR06
U 1 1 58FF080D
P 7800 2200
F 0 "#PWR06" H 7800 1950 50  0001 C CNN
F 1 "GND" H 7800 2050 50  0000 C CNN
F 2 "" H 7800 2200 50  0001 C CNN
F 3 "" H 7800 2200 50  0001 C CNN
	1    7800 2200
	1    0    0    -1  
$EndComp
$Comp
L GND #PWR07
U 1 1 58FF1308
P 9000 1400
F 0 "#PWR07" H 9000 1150 50  0001 C CNN
F 1 "GND" H 9000 1250 50  0000 C CNN
F 2 "" H 9000 1400 50  0001 C CNN
F 3 "" H 9000 1400 50  0001 C CNN
	1    9000 1400
	1    0    0    -1  
$EndComp
NoConn ~ 9450 2100
NoConn ~ 9450 2550
NoConn ~ 9450 2650
$Comp
L ISL91127 U3
U 1 1 58FFAF45
P 8700 2200
F 0 "U3" H 8700 2800 60  0000 C CNN
F 1 "ISL91127" H 8700 1650 60  0000 C CNN
F 2 "Housings_DFN_QFN:QFN-20-1EP_4x4mm_Pitch0.5mm" H 8400 2200 60  0001 C CNN
F 3 "" H 8400 2200 60  0001 C CNN
	1    8700 2200
	1    0    0    -1  
$EndComp
NoConn ~ 2750 3750
NoConn ~ 2750 3850
NoConn ~ 2750 3950
NoConn ~ 2750 4050
$Sheet
S 5500 3450 1950 2300
U 58E2FC97
F0 "ESP32" 60
F1 "LoRaNeT32_ESP32.sch" 60
F2 "ESP32_EN" I L 5500 3950 60 
F3 "ESP32_IO0" I L 5500 3850 60 
F4 "ESP32_TXD0" I L 5500 3650 60 
F5 "ESP32_RXD0" I L 5500 3550 60 
F6 "ESP32_RXD1" I L 5500 4950 60 
F7 "ESP32_TXD1" I L 5500 5050 60 
$EndSheet
Wire Wire Line
	4750 3550 5500 3550
Wire Wire Line
	4750 3650 5500 3650
Wire Wire Line
	4750 3850 5500 3850
Wire Wire Line
	4750 3950 5500 3950
Wire Wire Line
	2750 5050 5500 5050
Wire Wire Line
	2750 4950 5500 4950
Wire Wire Line
	3600 1050 4200 1050
Wire Wire Line
	4500 1050 4600 1050
Wire Wire Line
	4600 1450 4500 1450
Wire Wire Line
	3700 1450 4200 1450
Wire Wire Line
	5350 1050 4900 1050
Wire Wire Line
	5350 1450 4900 1450
Wire Wire Line
	5200 1950 5300 1950
Wire Wire Line
	5500 1950 5500 2100
Wire Wire Line
	5200 2100 5600 2100
Connection ~ 5500 2100
Wire Wire Line
	5200 2200 6000 2200
Wire Wire Line
	6000 2200 6000 2100
Wire Wire Line
	6000 2100 5900 2100
Wire Wire Line
	5200 2300 5900 2300
Wire Wire Line
	5300 2300 5300 2400
Wire Wire Line
	5300 2400 5200 2400
Wire Wire Line
	5550 2300 5550 2350
Connection ~ 5300 2300
Wire Wire Line
	5550 2550 5550 2750
Wire Wire Line
	5200 1850 6300 1850
Wire Wire Line
	6300 1850 6300 1900
Wire Wire Line
	6300 2100 6300 2350
Wire Wire Line
	5550 2650 5200 2650
Connection ~ 5550 2650
Wire Wire Line
	3700 2550 3700 2650
Wire Wire Line
	3700 2850 3700 3050
Connection ~ 3550 2450
Wire Wire Line
	3850 2950 3850 2650
Connection ~ 3700 2950
Wire Wire Line
	5900 2300 5900 2450
Connection ~ 5550 2300
Wire Wire Line
	6000 2450 6000 2300
Wire Wire Line
	6000 2300 6300 2300
Connection ~ 6300 2300
Wire Wire Line
	3550 2350 3550 2950
Wire Wire Line
	3550 2950 3850 2950
Wire Wire Line
	3550 2350 3850 2350
Wire Wire Line
	3850 2450 3550 2450
Wire Wire Line
	3700 2550 3850 2550
Connection ~ 3100 2250
Wire Wire Line
	2250 2700 3550 2700
Connection ~ 3550 2700
Wire Wire Line
	3100 2150 3100 2300
Wire Wire Line
	3100 2700 3100 2600
Wire Wire Line
	3300 2550 3300 2700
Connection ~ 3300 2700
Wire Wire Line
	3850 2150 3300 2150
Wire Wire Line
	3300 2150 3300 2350
Wire Wire Line
	3850 2050 3500 2050
Wire Wire Line
	3500 2050 3500 1800
Wire Wire Line
	3100 1800 3100 1850
Wire Wire Line
	3300 1800 3300 1850
Connection ~ 3300 1800
Connection ~ 3100 1800
Wire Wire Line
	2750 2100 2750 2700
Connection ~ 3100 2700
Wire Wire Line
	2100 1900 2250 1900
Wire Wire Line
	2250 1900 2250 2700
Connection ~ 2750 2700
Wire Wire Line
	3700 1450 3700 1850
Wire Wire Line
	3700 1850 3850 1850
Wire Wire Line
	3600 1050 3600 1950
Wire Wire Line
	3600 1950 3850 1950
Wire Wire Line
	3100 2250 3850 2250
Wire Wire Line
	5350 1050 5350 1850
Connection ~ 5350 1850
Connection ~ 5350 1450
Wire Wire Line
	3300 3550 3450 3550
Wire Wire Line
	3300 3200 3300 3550
Wire Wire Line
	1600 3200 3300 3200
Wire Wire Line
	2800 1450 1600 1450
Wire Wire Line
	1600 1450 1600 3200
Wire Wire Line
	3500 1800 2650 1800
Wire Wire Line
	2800 1550 2650 1550
Wire Wire Line
	2650 1550 2650 1800
Wire Wire Line
	2800 1650 2550 1650
Wire Wire Line
	2550 1650 2550 1800
Wire Wire Line
	7600 1700 8050 1700
Wire Wire Line
	7600 2000 8050 2000
Wire Wire Line
	8000 1700 8000 1800
Wire Wire Line
	8000 1800 8050 1800
Connection ~ 8000 1700
Wire Wire Line
	8000 2000 8000 2100
Wire Wire Line
	8000 2100 8050 2100
Connection ~ 8000 2000
Wire Wire Line
	2750 1900 2750 1800
Connection ~ 2750 1800
Wire Wire Line
	8050 2250 8000 2250
Wire Wire Line
	8000 2250 8000 2550
Wire Wire Line
	7450 2550 8050 2550
Connection ~ 8000 2550
Wire Wire Line
	8050 2350 8000 2350
Connection ~ 8000 2350
Wire Wire Line
	8000 2450 8050 2450
Connection ~ 8000 2450
Wire Wire Line
	7700 2800 7700 2850
Wire Wire Line
	7700 2600 7700 2550
Wire Wire Line
	5750 2400 5900 2400
Wire Wire Line
	5750 2400 5750 2900
Wire Wire Line
	5750 2900 7450 2900
Wire Wire Line
	7450 2900 7450 2550
Connection ~ 7700 2550
Connection ~ 5900 2400
Wire Wire Line
	7850 2550 7850 2650
Wire Wire Line
	7850 2650 8050 2650
Connection ~ 7850 2550
Connection ~ 10100 1850
Connection ~ 9900 1850
Wire Wire Line
	9900 2150 9900 2200
Wire Wire Line
	9900 2200 10100 2200
Wire Wire Line
	10100 2200 10100 2150
Wire Wire Line
	10000 2200 10000 2750
Connection ~ 10000 2200
Wire Wire Line
	9700 2250 9450 2250
Connection ~ 9700 1850
Wire Wire Line
	8050 1900 7800 1900
Wire Wire Line
	7800 1900 7800 2200
Wire Wire Line
	9450 2350 10000 2350
Connection ~ 10000 2350
Wire Wire Line
	9450 2450 9550 2450
Wire Wire Line
	9550 2450 9550 2350
Connection ~ 9550 2350
Wire Wire Line
	8850 1450 8850 1300
Wire Wire Line
	8850 1300 9000 1300
Wire Wire Line
	9000 1300 9000 1400
Wire Wire Line
	9450 1700 9550 1700
Wire Wire Line
	9550 2000 9450 2000
Wire Wire Line
	9450 1800 9550 1800
Connection ~ 9550 1800
Wire Wire Line
	9450 1900 9550 1900
Connection ~ 9550 1900
Connection ~ 9550 1850
Wire Wire Line
	9700 1850 9700 2250
Wire Wire Line
	9900 1850 9900 1950
Wire Wire Line
	10100 1950 10100 1850
Wire Wire Line
	9550 1850 10300 1850
Wire Wire Line
	9550 1700 9550 2000
$Comp
L D_Schottky D1
U 1 1 59031366
P 2350 1800
F 0 "D1" H 2350 1900 50  0000 C CNN
F 1 "D_Schottky" H 2350 1700 50  0000 C CNN
F 2 "" H 2350 1800 50  0001 C CNN
F 3 "" H 2350 1800 50  0001 C CNN
	1    2350 1800
	-1   0    0    1   
$EndComp
Wire Wire Line
	2550 1800 2500 1800
Wire Wire Line
	2200 1800 2100 1800
Text Label 5250 2200 0    60   ~ 0
CHGSNS
$EndSCHEMATC
