EESchema Schematic File Version 2
LIBS:LoRaNeT32-rescue
LIBS:power
LIBS:device
LIBS:transistors
LIBS:conn
LIBS:linear
LIBS:regul
LIBS:74xx
LIBS:cmos4000
LIBS:adc-dac
LIBS:memory
LIBS:xilinx
LIBS:microcontrollers
LIBS:dsp
LIBS:microchip
LIBS:analog_switches
LIBS:motorola
LIBS:texas
LIBS:intel
LIBS:audio
LIBS:interface
LIBS:digital-audio
LIBS:philips
LIBS:display
LIBS:cypress
LIBS:siliconi
LIBS:opto
LIBS:atmel
LIBS:contrib
LIBS:valves
LIBS:rn2483
LIBS:ESP32-footprints-Shem-Lib
LIBS:espressif-xess
LIBS:ft2232
LIBS:CON-SMA-EDGE
LIBS:Winbond
LIBS:CP2102
LIBS:ltc4121-4v2
LIBS:LoRaNeT32-cache
EELAYER 25 0
EELAYER END
$Descr A4 11693 8268
encoding utf-8
Sheet 2 4
Title ""
Date ""
Rev ""
Comp ""
Comment1 ""
Comment2 ""
Comment3 ""
Comment4 ""
$EndDescr
$Comp
L RN2483-RESCUE-LoRaNeT32 U2
U 1 1 58E2D9A0
P 5400 3700
AR Path="/58E2D9A0" Ref="U2"  Part="1" 
AR Path="/58E2D927/58E2D9A0" Ref="U2"  Part="1" 
F 0 "U2" H 5600 2250 60  0000 C CNN
F 1 "RN2903" H 5000 2250 60  0000 C CNN
F 2 "lib:RN2903" H 5500 3000 60  0001 C CNN
F 3 "" H 5500 3000 60  0000 C CNN
F 4 "RN2903A-I/RM098-ND" H 5400 3700 60  0001 C CNN "digi#"
	1    5400 3700
	1    0    0    -1  
$EndComp
Wire Wire Line
	6300 5000 6400 5000
Wire Wire Line
	6400 5000 6400 5150
Wire Wire Line
	4500 5000 4400 5000
Wire Wire Line
	4400 5000 4400 5150
$Comp
L GND #PWR08
U 1 1 58E2DA63
P 4300 4400
F 0 "#PWR08" H 4300 4150 50  0001 C CNN
F 1 "GND" H 4300 4250 50  0000 C CNN
F 2 "" H 4300 4400 50  0001 C CNN
F 3 "" H 4300 4400 50  0001 C CNN
	1    4300 4400
	1    0    0    -1  
$EndComp
Wire Wire Line
	4350 3100 4500 3100
Wire Wire Line
	4100 3600 4500 3600
Wire Wire Line
	4300 4400 4500 4400
Wire Wire Line
	6600 4300 6300 4300
Wire Wire Line
	6300 4000 6600 4000
Wire Wire Line
	6300 3100 6450 3100
Wire Wire Line
	4750 2700 4750 2600
Wire Wire Line
	4750 2600 5850 2600
Wire Wire Line
	4950 2600 4950 2700
Wire Wire Line
	5100 2600 5100 2700
Connection ~ 4950 2600
Wire Wire Line
	5400 2600 5400 2700
Connection ~ 5100 2600
Wire Wire Line
	5700 2600 5700 2700
Connection ~ 5400 2600
Wire Wire Line
	5850 2600 5850 2700
Connection ~ 5700 2600
Wire Wire Line
	6600 4000 6600 4300
Connection ~ 6600 4150
Text HLabel 6600 4500 2    60   Input ~ 0
LORA_TX0
Text HLabel 6600 4400 2    60   Input ~ 0
LORA_RX0
Wire Wire Line
	6600 4400 6300 4400
Wire Wire Line
	6600 4500 6300 4500
Text HLabel 6600 4800 2    60   Input ~ 0
LORA_CTS
Text HLabel 6600 4900 2    60   Input ~ 0
LORA_RTS
Wire Wire Line
	6600 4900 6300 4900
Wire Wire Line
	6300 4800 6600 4800
Wire Wire Line
	5550 1850 5550 2700
Wire Wire Line
	5250 1850 5250 2700
$Comp
L CON-SMA ANT2
U 1 1 58E2DE30
P 6000 1500
F 0 "ANT2" H 5900 2050 60  0000 C CNN
F 1 "CON-SMA" V 6250 1700 60  0000 C CNN
F 2 "lib:CON-SMA-EDGE" H 6000 1500 60  0001 C CNN
F 3 "" H 6000 1500 60  0000 C CNN
F 4 "CON-SMA-EDGE-S-ND" H 6000 1500 60  0001 C CNN "digi#"
	1    6000 1500
	0    -1   -1   0   
$EndComp
$Comp
L CON-SMA ANT1
U 1 1 58E2DEA1
P 4800 1500
F 0 "ANT1" H 4700 2050 60  0000 C CNN
F 1 "CON-SMA" V 5050 1700 60  0000 C CNN
F 2 "lib:CON-SMA-EDGE" H 4800 1500 60  0001 C CNN
F 3 "" H 4800 1500 60  0000 C CNN
F 4 "CON-SMA-EDGE-S-ND" H 4800 1500 60  0001 C CNN "digi#"
	1    4800 1500
	0    1    -1   0   
$EndComp
Wire Wire Line
	5250 1850 5100 1850
Wire Wire Line
	5550 1850 5700 1850
$Comp
L GND #PWR09
U 1 1 58E2DFAF
P 6300 1750
F 0 "#PWR09" H 6300 1500 50  0001 C CNN
F 1 "GND" H 6300 1600 50  0000 C CNN
F 2 "" H 6300 1750 50  0001 C CNN
F 3 "" H 6300 1750 50  0001 C CNN
	1    6300 1750
	1    0    0    -1  
$EndComp
$Comp
L GND #PWR010
U 1 1 58E2DFCA
P 4500 1750
F 0 "#PWR010" H 4500 1500 50  0001 C CNN
F 1 "GND" H 4500 1600 50  0000 C CNN
F 2 "" H 4500 1750 50  0001 C CNN
F 3 "" H 4500 1750 50  0001 C CNN
	1    4500 1750
	1    0    0    -1  
$EndComp
Wire Wire Line
	4550 1350 4500 1350
Wire Wire Line
	4500 1350 4500 1750
Wire Wire Line
	4550 1450 4500 1450
Connection ~ 4500 1450
Wire Wire Line
	4550 1550 4500 1550
Connection ~ 4500 1550
Wire Wire Line
	4550 1650 4500 1650
Connection ~ 4500 1650
Wire Wire Line
	6250 1350 6300 1350
Wire Wire Line
	6300 1350 6300 1750
Wire Wire Line
	6250 1450 6300 1450
Connection ~ 6300 1450
Wire Wire Line
	6300 1550 6250 1550
Connection ~ 6300 1550
Wire Wire Line
	6250 1650 6300 1650
Connection ~ 6300 1650
Text GLabel 4300 3750 3    60   Input ~ 0
3V3
Wire Wire Line
	4300 3750 4300 3700
Wire Wire Line
	4300 3700 4500 3700
Text GLabel 6600 3900 2    60   Input ~ 0
3V3
Wire Wire Line
	6600 3900 6300 3900
Text HLabel 6600 3800 2    60   Input ~ 0
LORA_TX1
Text HLabel 6600 3700 2    60   Input ~ 0
LORA_RX1
Wire Wire Line
	6600 3700 6300 3700
Wire Wire Line
	6600 3800 6300 3800
NoConn ~ 6300 3200
NoConn ~ 6300 3300
NoConn ~ 6300 3400
NoConn ~ 6300 3500
NoConn ~ 6300 3600
NoConn ~ 6300 4100
NoConn ~ 6300 4200
NoConn ~ 6300 4600
NoConn ~ 6300 4700
NoConn ~ 4500 4900
NoConn ~ 4500 4800
NoConn ~ 4500 4700
NoConn ~ 4500 4600
NoConn ~ 4500 4500
NoConn ~ 4500 4300
NoConn ~ 4500 4200
NoConn ~ 4500 4100
NoConn ~ 4500 4000
NoConn ~ 4500 3900
NoConn ~ 4500 3800
NoConn ~ 4500 3400
NoConn ~ 4500 3300
NoConn ~ 4500 3200
$Comp
L R R9
U 1 1 58FFB279
P 3950 3300
F 0 "R9" V 4030 3300 50  0000 C CNN
F 1 "4.7k" V 3950 3300 50  0000 C CNN
F 2 "Resistors_SMD:R_0402" V 3880 3300 50  0001 C CNN
F 3 "" H 3950 3300 50  0001 C CNN
	1    3950 3300
	1    0    0    -1  
$EndComp
Wire Wire Line
	3950 3450 3950 3500
Wire Wire Line
	3950 3500 4500 3500
Text GLabel 3700 3050 0    60   Input ~ 0
3V3
Wire Wire Line
	3700 3050 3950 3050
Wire Wire Line
	3950 3050 3950 3150
$Comp
L GND #PWR011
U 1 1 58FFB5C4
P 4750 2700
F 0 "#PWR011" H 4750 2450 50  0001 C CNN
F 1 "GND" H 4750 2550 50  0000 C CNN
F 2 "" H 4750 2700 50  0001 C CNN
F 3 "" H 4750 2700 50  0001 C CNN
	1    4750 2700
	1    0    0    -1  
$EndComp
$Comp
L GND #PWR012
U 1 1 58FFBC1A
P 4400 5150
F 0 "#PWR012" H 4400 4900 50  0001 C CNN
F 1 "GND" H 4400 5000 50  0000 C CNN
F 2 "" H 4400 5150 50  0001 C CNN
F 3 "" H 4400 5150 50  0001 C CNN
	1    4400 5150
	1    0    0    -1  
$EndComp
$Comp
L GND #PWR013
U 1 1 58FFBC5E
P 6400 5150
F 0 "#PWR013" H 6400 4900 50  0001 C CNN
F 1 "GND" H 6400 5000 50  0000 C CNN
F 2 "" H 6400 5150 50  0001 C CNN
F 3 "" H 6400 5150 50  0001 C CNN
	1    6400 5150
	1    0    0    -1  
$EndComp
Wire Wire Line
	6600 4150 7350 4150
Wire Wire Line
	7350 4150 7350 4300
$Comp
L GND #PWR014
U 1 1 58FFBCF6
P 7350 4300
F 0 "#PWR014" H 7350 4050 50  0001 C CNN
F 1 "GND" H 7350 4150 50  0000 C CNN
F 2 "" H 7350 4300 50  0001 C CNN
F 3 "" H 7350 4300 50  0001 C CNN
	1    7350 4300
	1    0    0    -1  
$EndComp
$Comp
L GND #PWR015
U 1 1 58FFBD4A
P 6450 3100
F 0 "#PWR015" H 6450 2850 50  0001 C CNN
F 1 "GND" H 6450 2950 50  0000 C CNN
F 2 "" H 6450 3100 50  0001 C CNN
F 3 "" H 6450 3100 50  0001 C CNN
	1    6450 3100
	1    0    0    -1  
$EndComp
$Comp
L GND #PWR016
U 1 1 58FFBD7A
P 4350 3100
F 0 "#PWR016" H 4350 2850 50  0001 C CNN
F 1 "GND" H 4350 2950 50  0000 C CNN
F 2 "" H 4350 3100 50  0001 C CNN
F 3 "" H 4350 3100 50  0001 C CNN
	1    4350 3100
	1    0    0    -1  
$EndComp
$Comp
L GND #PWR017
U 1 1 58FFBD96
P 4100 3600
F 0 "#PWR017" H 4100 3350 50  0001 C CNN
F 1 "GND" H 4100 3450 50  0000 C CNN
F 2 "" H 4100 3600 50  0001 C CNN
F 3 "" H 4100 3600 50  0001 C CNN
	1    4100 3600
	1    0    0    -1  
$EndComp
$EndSCHEMATC
