EESchema Schematic File Version 2
LIBS:power
LIBS:device
LIBS:transistors
LIBS:conn
LIBS:linear
LIBS:regul
LIBS:74xx
LIBS:cmos4000
LIBS:adc-dac
LIBS:memory
LIBS:xilinx
LIBS:microcontrollers
LIBS:dsp
LIBS:microchip
LIBS:analog_switches
LIBS:motorola
LIBS:texas
LIBS:intel
LIBS:audio
LIBS:interface
LIBS:digital-audio
LIBS:philips
LIBS:display
LIBS:cypress
LIBS:siliconi
LIBS:opto
LIBS:atmel
LIBS:contrib
LIBS:valves
LIBS:rn2483
LIBS:ESP32-footprints-Shem-Lib
LIBS:espressif-xess
LIBS:ft2232
LIBS:CON-SMA-EDGE
LIBS:Winbond
LIBS:CP2102
LIBS:ltc4121-4v2
LIBS:LoRaNeT32-cache
EELAYER 25 0
EELAYER END
$Descr A4 11693 8268
encoding utf-8
Sheet 3 4
Title ""
Date ""
Rev ""
Comp ""
Comment1 ""
Comment2 ""
Comment3 ""
Comment4 ""
$EndDescr
$Comp
L USB_OTG J1
U 1 1 58E2A6A1
P 1150 3400
F 0 "J1" H 950 3850 50  0000 L CNN
F 1 "USB_OTG" H 950 3750 50  0000 L CNN
F 2 "ESP32:USB_Micro-B_10103594-0001LF" H 1300 3350 50  0001 C CNN
F 3 "" H 1300 3350 50  0001 C CNN
F 4 "609-4618-1-ND" H 1150 3400 60  0001 C CNN "digi#"
	1    1150 3400
	1    0    0    -1  
$EndComp
Text HLabel 6900 3400 2    60   Input ~ 0
CP_RX
Text HLabel 6900 3300 2    60   Input ~ 0
CP_TX
Text HLabel 6900 3500 2    60   Input ~ 0
CP_RTS
Text HLabel 6900 3100 2    60   Input ~ 0
CP_DTR
$Comp
L C_Small C4
U 1 1 58F84C87
P 2950 4200
F 0 "C4" H 2960 4270 50  0000 L CNN
F 1 "4.7u" H 2960 4120 50  0000 L CNN
F 2 "Capacitors_SMD:C_0603" H 2950 4200 50  0001 C CNN
F 3 "" H 2950 4200 50  0001 C CNN
	1    2950 4200
	1    0    0    -1  
$EndComp
$Comp
L C_Small C5
U 1 1 58F84CBE
P 3200 4200
F 0 "C5" H 3210 4270 50  0000 L CNN
F 1 "0.1u" H 3210 4120 50  0000 L CNN
F 2 "Capacitors_SMD:C_0603" H 3200 4200 50  0001 C CNN
F 3 "" H 3200 4200 50  0001 C CNN
	1    3200 4200
	1    0    0    -1  
$EndComp
$Comp
L GND #PWR020
U 1 1 58F84DF2
P 3400 3150
F 0 "#PWR020" H 3400 2900 50  0001 C CNN
F 1 "GND" H 3400 3000 50  0000 C CNN
F 2 "" H 3400 3150 50  0001 C CNN
F 3 "" H 3400 3150 50  0001 C CNN
	1    3400 3150
	1    0    0    -1  
$EndComp
$Comp
L C_Small C2
U 1 1 58F8502D
P 2150 4050
F 0 "C2" H 2160 4120 50  0000 L CNN
F 1 "4.7u" H 2160 3970 50  0000 L CNN
F 2 "Capacitors_SMD:C_0603" H 2150 4050 50  0001 C CNN
F 3 "" H 2150 4050 50  0001 C CNN
	1    2150 4050
	1    0    0    -1  
$EndComp
$Comp
L C_Small C3
U 1 1 58F85034
P 2400 4050
F 0 "C3" H 2410 4120 50  0000 L CNN
F 1 "0.1u" H 2410 3970 50  0000 L CNN
F 2 "Capacitors_SMD:C_0603" H 2400 4050 50  0001 C CNN
F 3 "" H 2400 4050 50  0001 C CNN
	1    2400 4050
	1    0    0    -1  
$EndComp
$Comp
L R_Small R4
U 1 1 58F85367
P 3550 4650
F 0 "R4" H 3580 4670 50  0000 L CNN
F 1 "1k" H 3580 4610 50  0000 L CNN
F 2 "Resistors_SMD:R_0603" H 3550 4650 50  0001 C CNN
F 3 "" H 3550 4650 50  0001 C CNN
	1    3550 4650
	-1   0    0    1   
$EndComp
Text GLabel 1650 3200 2    60   Input ~ 0
VBUS
Text GLabel 2850 4750 2    60   Input ~ 0
VBUS
$Comp
L GND #PWR021
U 1 1 58F86428
P 1100 3950
F 0 "#PWR021" H 1100 3700 50  0001 C CNN
F 1 "GND" H 1100 3800 50  0000 C CNN
F 2 "" H 1100 3950 50  0001 C CNN
F 3 "" H 1100 3950 50  0001 C CNN
	1    1100 3950
	1    0    0    -1  
$EndComp
$Comp
L GND #PWR022
U 1 1 58F8668D
P 3100 4400
F 0 "#PWR022" H 3100 4150 50  0001 C CNN
F 1 "GND" H 3100 4250 50  0000 C CNN
F 2 "" H 3100 4400 50  0001 C CNN
F 3 "" H 3100 4400 50  0001 C CNN
	1    3100 4400
	1    0    0    -1  
$EndComp
$Comp
L GND #PWR023
U 1 1 58F86A66
P 2300 4250
F 0 "#PWR023" H 2300 4000 50  0001 C CNN
F 1 "GND" H 2300 4100 50  0000 C CNN
F 2 "" H 2300 4250 50  0001 C CNN
F 3 "" H 2300 4250 50  0001 C CNN
	1    2300 4250
	1    0    0    -1  
$EndComp
Text GLabel 1850 3850 0    60   Input ~ 0
CP_VDD
Connection ~ 2300 4200
Wire Wire Line
	2400 4200 2400 4150
Wire Wire Line
	2150 4200 2150 4150
Wire Wire Line
	2150 4200 2400 4200
Wire Wire Line
	2300 4250 2300 4200
Wire Wire Line
	2150 3600 2150 3950
Wire Wire Line
	2400 3950 2400 3600
Connection ~ 2400 3600
Wire Wire Line
	1900 3600 4050 3600
Connection ~ 3100 4350
Wire Wire Line
	3200 4350 3200 4300
Wire Wire Line
	2950 4350 2950 4300
Wire Wire Line
	2950 4350 3200 4350
Wire Wire Line
	3100 4400 3100 4350
Connection ~ 3200 3950
Wire Wire Line
	3200 3950 3200 4100
Connection ~ 2950 3950
Wire Wire Line
	2950 4100 2950 3950
Connection ~ 1100 3900
Wire Wire Line
	1100 3950 1100 3900
Wire Wire Line
	2800 3950 4050 3950
Wire Wire Line
	1650 3200 1450 3200
Wire Wire Line
	1150 3900 1150 3800
Wire Wire Line
	1050 3900 1150 3900
Wire Wire Line
	1050 3800 1050 3900
Wire Wire Line
	1450 3500 4050 3500
Wire Wire Line
	1450 3400 4050 3400
Wire Wire Line
	6700 3300 6900 3300
Wire Wire Line
	6700 3400 6900 3400
Wire Wire Line
	6900 3500 6700 3500
Wire Wire Line
	6700 3100 6900 3100
Wire Wire Line
	2850 4750 2800 4750
Wire Wire Line
	2800 4750 2800 3950
Wire Wire Line
	1850 3850 1900 3850
Wire Wire Line
	1900 3850 1900 3600
Connection ~ 2150 3600
Wire Wire Line
	4050 4050 3550 4050
Wire Wire Line
	3550 4050 3550 4550
Text GLabel 3500 5050 0    60   Input ~ 0
CP_VDD
Wire Wire Line
	3550 5050 3550 4750
Wire Wire Line
	3500 5050 3550 5050
Wire Wire Line
	3850 3950 3850 3700
Wire Wire Line
	3850 3700 4050 3700
Connection ~ 3850 3950
Wire Wire Line
	3400 3150 3400 3050
Wire Wire Line
	3400 3050 3650 3050
Wire Wire Line
	3650 2550 3650 3300
Wire Wire Line
	3650 3300 4050 3300
$Comp
L LED_Small D5
U 1 1 58FD1E2F
P 7300 4050
F 0 "D5" H 7250 4175 50  0000 L CNN
F 1 "LED_Small" H 7125 3950 50  0000 L CNN
F 2 "LEDs:LED_0603" V 7300 4050 50  0001 C CNN
F 3 "" V 7300 4050 50  0001 C CNN
	1    7300 4050
	1    0    0    -1  
$EndComp
Wire Wire Line
	6700 4150 7000 4150
Wire Wire Line
	7000 4150 7000 4050
Wire Wire Line
	7000 4050 7200 4050
$Comp
L LED_Small D6
U 1 1 58FD1F6B
P 7650 4250
F 0 "D6" H 7600 4375 50  0000 L CNN
F 1 "LED_Small" H 7475 4150 50  0000 L CNN
F 2 "LEDs:LED_0603" V 7650 4250 50  0001 C CNN
F 3 "" V 7650 4250 50  0001 C CNN
	1    7650 4250
	1    0    0    -1  
$EndComp
Wire Wire Line
	6700 4250 7550 4250
Wire Wire Line
	7400 4050 7950 4050
Wire Wire Line
	7950 3800 7950 4250
Wire Wire Line
	7950 4250 7750 4250
Text GLabel 8050 3800 2    60   Input ~ 0
CP_VDD
Wire Wire Line
	8050 3800 7950 3800
Connection ~ 7950 4050
$Comp
L CP2102N-A01-GQFN28R U4
U 1 1 58FD34DE
P 5400 3600
F 0 "U4" H 5400 4250 50  0000 C CNN
F 1 "CP2102N-A01-GQFN28R" H 5450 2500 50  0000 C CNN
F 2 "" H 5400 3600 60  0001 C CNN
F 3 "" H 5400 3600 60  0001 C CNN
	1    5400 3600
	1    0    0    -1  
$EndComp
Wire Wire Line
	3650 2550 4900 2550
Wire Wire Line
	4900 2550 4900 2700
Connection ~ 3650 3050
$EndSCHEMATC
