graph LR
WiFi["fa:fa-refresh WiFi AP"]
BLE[BLE]
Worker[Service Worker]
App[Web App]
Low[Reduce WiFi Power]
Return[Return Client]

Client[First Time Client]
Client-->WiFi
WiFi-->Worker
WiFi-->Low
Worker-->App
App-->BLE

Return-->Worker
